%!PS-Adobe-3.0 EPSF-3.0 
%%BoundingBox: 0 0 792 612
%%Pages: 0
%%Creator: LibreOffice 3.6
%%Title: none
%%CreationDate: none
%%LanguageLevel: 2
%%EndComments
%%BeginProlog
%%BeginResource: procset SDRes-Prolog 1.0 0
/b4_inc_state save def
/dict_count countdictstack def
/op_count count 1 sub def
userdict begin
0 setgray 0 setlinecap 1 setlinewidth 0 setlinejoin 10 setmiterlimit[] 0 setdash newpath
/languagelevel where {pop languagelevel 1 ne {false setstrokeadjust false setoverprint} if} if
/bdef {bind def} bind def
/c {setgray} bdef
/l {neg lineto} bdef
/rl {neg rlineto} bdef
/lc {setlinecap} bdef
/lj {setlinejoin} bdef
/lw {setlinewidth} bdef
/ml {setmiterlimit} bdef
/ld {setdash} bdef
/m {neg moveto} bdef
/ct {6 2 roll neg 6 2 roll neg 6 2 roll neg curveto} bdef
/r {rotate} bdef
/t {neg translate} bdef
/s {scale} bdef
/sw {show} bdef
/gs {gsave} bdef
/gr {grestore} bdef
/f {findfont dup length dict begin
{1 index /FID ne {def} {pop pop} ifelse} forall /Encoding ISOLatin1Encoding def
currentdict end /NFont exch definefont pop /NFont findfont} bdef
/p {closepath} bdef
/sf {scalefont setfont} bdef
/ef {eofill}bdef
/pc {closepath stroke}bdef
/ps {stroke}bdef
/pum {matrix currentmatrix}bdef
/pom {setmatrix}bdef
/bs {/aString exch def /nXOfs exch def /nWidth exch def currentpoint nXOfs 0 rmoveto pum nWidth aString stringwidth pop div 1 scale aString show pom moveto} bdef
%%EndResource
%%EndProlog
%%BeginSetup
%%EndSetup
%%Page: 1 1
%%BeginPageSetup
%%EndPageSetup
pum
0.02834 0.02834 s 
0 -21590 t
/tm matrix currentmatrix def
gs
tm setmatrix
-1077 -1102 t 
1 1 s 
1077 1102 m 29016 1102 l 29016 22691 l 1077 22691 l 1077 1102 l eoclip newpath
gs
0 0 m 27939 0 l 27939 21589 l 0 21589 l 0 0 l eoclip newpath
0.880 c 7983 1238 m  8565 1238 9009 1695 9009 2292 ct 9009 2889 8565 3345 7983 3345 ct 
7401 3345 6958 2889 6958 2292 ct 6958 1695 7401 1238 7983 1238 ct p ef
0 lw 1 lj 0.500 c 7983 1238 m  8565 1238 9009 1695 9009 2292 ct 9009 2889 8565 3345 7983 3345 ct 
7401 3345 6958 2889 6958 2292 ct 6958 1695 7401 1238 7983 1238 ct pc
6958 1238 m  6958 1238 l  pc
9011 3347 m  9011 3347 l  pc
pum
7631 2670 t
0.000 c 676 -206 m  676 -137 649 -84 595 -46 ct 541 -8 465 11 367 11 ct 184 11 79 -52 49 -179 ct 
148 -199 l  159 -154 183 -121 220 -100 ct 257 -79 307 -68 371 -68 ct 436 -68 487 -79 522 -102 ct 
558 -125 576 -158 576 -201 ct 576 -226 570 -245 559 -261 ct 548 -276 532 -289 512 -298 ct 
492 -308 468 -317 440 -323 ct 412 -330 381 -337 347 -345 ct 287 -358 243 -372 212 -385 ct 
181 -398 157 -412 139 -428 ct 122 -445 108 -463 99 -485 ct 89 -507 85 -532 85 -560 ct 
85 -624 109 -673 158 -708 ct 207 -743 278 -760 369 -760 ct 454 -760 519 -747 564 -721 ct 
609 -695 641 -650 659 -588 ct 559 -570 l  548 -610 527 -639 496 -657 ct 465 -674 423 -683 368 -683 ct 
308 -683 262 -674 231 -654 ct 199 -634 183 -604 183 -565 ct 183 -542 190 -523 202 -508 ct 
214 -493 232 -480 255 -469 ct 278 -459 324 -446 392 -431 ct 415 -426 438 -420 461 -415 ct 
484 -409 506 -403 527 -395 ct 548 -387 567 -378 586 -368 ct 604 -358 620 -345 633 -330 ct 
647 -315 657 -298 665 -278 ct 673 -258 676 -234 676 -206 ct p ef
pom

0.880 c 6068 11176 m  6650 11176 7094 11632 7094 12229 ct 7094 12827 6650 13283 6068 13283 ct 
5486 13283 5042 12827 5042 12229 ct 5042 11632 5486 11176 6068 11176 ct p ef
0.500 c 6068 11176 m  6650 11176 7094 11632 7094 12229 ct 7094 12827 6650 13283 6068 13283 ct 
5486 13283 5042 12827 5042 12229 ct 5042 11632 5486 11176 6068 11176 ct pc
5042 11176 m  5042 11176 l  pc
7095 13284 m  7095 13284 l  pc
pum
5716 12608 t
0.000 c 676 -206 m  676 -137 649 -84 595 -46 ct 541 -8 465 11 367 11 ct 184 11 79 -52 49 -179 ct 
148 -199 l  159 -154 183 -121 220 -100 ct 257 -79 307 -68 371 -68 ct 436 -68 487 -79 522 -102 ct 
558 -125 576 -158 576 -201 ct 576 -226 570 -245 559 -261 ct 548 -276 532 -289 512 -298 ct 
492 -308 468 -317 440 -323 ct 412 -330 381 -337 347 -345 ct 287 -358 243 -372 212 -385 ct 
181 -398 157 -412 139 -428 ct 122 -445 108 -463 99 -485 ct 89 -507 85 -532 85 -560 ct 
85 -624 109 -673 158 -708 ct 207 -743 278 -760 369 -760 ct 454 -760 519 -747 564 -721 ct 
609 -695 641 -650 659 -588 ct 559 -570 l  548 -610 527 -639 496 -657 ct 465 -674 423 -683 368 -683 ct 
308 -683 262 -674 231 -654 ct 199 -634 183 -604 183 -565 ct 183 -542 190 -523 202 -508 ct 
214 -493 232 -480 255 -469 ct 278 -459 324 -446 392 -431 ct 415 -426 438 -420 461 -415 ct 
484 -409 506 -403 527 -395 ct 548 -387 567 -378 586 -368 ct 604 -358 620 -345 633 -330 ct 
647 -315 657 -298 665 -278 ct 673 -258 676 -234 676 -206 ct p ef
pom

0.880 c 9624 11176 m  10206 11176 10651 11632 10651 12229 ct 10651 12827 10206 13283 9624 13283 ct 
9043 13283 8599 12827 8599 12229 ct 8599 11632 9043 11176 9624 11176 ct p ef
0.500 c 9624 11176 m  10206 11176 10651 11632 10651 12229 ct 10651 12827 10206 13283 9624 13283 ct 
9043 13283 8599 12827 8599 12229 ct 8599 11632 9043 11176 9624 11176 ct pc
8599 11176 m  8599 11176 l  pc
10652 13284 m  10652 13284 l  pc
pum
9273 12608 t
0.000 c 676 -206 m  676 -137 649 -84 595 -46 ct 541 -8 465 11 367 11 ct 184 11 79 -52 49 -179 ct 
148 -199 l  159 -154 183 -121 220 -100 ct 257 -79 307 -68 371 -68 ct 436 -68 487 -79 522 -102 ct 
558 -125 576 -158 576 -201 ct 576 -226 570 -245 559 -261 ct 548 -276 532 -289 512 -298 ct 
492 -308 468 -317 440 -323 ct 412 -330 381 -337 347 -345 ct 287 -358 243 -372 212 -385 ct 
181 -398 157 -412 139 -428 ct 122 -445 108 -463 99 -485 ct 89 -507 85 -532 85 -560 ct 
85 -624 109 -673 158 -708 ct 207 -743 278 -760 369 -760 ct 454 -760 519 -747 564 -721 ct 
609 -695 641 -650 659 -588 ct 559 -570 l  548 -610 527 -639 496 -657 ct 465 -674 423 -683 368 -683 ct 
308 -683 262 -674 231 -654 ct 199 -634 183 -604 183 -565 ct 183 -542 190 -523 202 -508 ct 
214 -493 232 -480 255 -469 ct 278 -459 324 -446 392 -431 ct 415 -426 438 -420 461 -415 ct 
484 -409 506 -403 527 -395 ct 548 -387 567 -378 586 -368 ct 604 -358 620 -345 633 -330 ct 
647 -315 657 -298 665 -278 ct 673 -258 676 -234 676 -206 ct p ef
pom

0.880 c 7983 13834 m  8565 13834 9009 14290 9009 14888 ct 9009 15485 8565 15941 7983 15941 ct 
7401 15941 6958 15485 6958 14888 ct 6958 14290 7401 13834 7983 13834 ct p ef
0.500 c 7983 13834 m  8565 13834 9009 14290 9009 14888 ct 9009 15485 8565 15941 7983 15941 ct 
7401 15941 6958 15485 6958 14888 ct 6958 14290 7401 13834 7983 13834 ct pc
6958 13834 m  6958 13834 l  pc
9011 15942 m  9011 15942 l  pc
pum
7631 15266 t
0.000 c 676 -206 m  676 -137 649 -84 595 -46 ct 541 -8 465 11 367 11 ct 184 11 79 -52 49 -179 ct 
148 -199 l  159 -154 183 -121 220 -100 ct 257 -79 307 -68 371 -68 ct 436 -68 487 -79 522 -102 ct 
558 -125 576 -158 576 -201 ct 576 -226 570 -245 559 -261 ct 548 -276 532 -289 512 -298 ct 
492 -308 468 -317 440 -323 ct 412 -330 381 -337 347 -345 ct 287 -358 243 -372 212 -385 ct 
181 -398 157 -412 139 -428 ct 122 -445 108 -463 99 -485 ct 89 -507 85 -532 85 -560 ct 
85 -624 109 -673 158 -708 ct 207 -743 278 -760 369 -760 ct 454 -760 519 -747 564 -721 ct 
609 -695 641 -650 659 -588 ct 559 -570 l  548 -610 527 -639 496 -657 ct 465 -674 423 -683 368 -683 ct 
308 -683 262 -674 231 -654 ct 199 -634 183 -604 183 -565 ct 183 -542 190 -523 202 -508 ct 
214 -493 232 -480 255 -469 ct 278 -459 324 -446 392 -431 ct 415 -426 438 -420 461 -415 ct 
484 -409 506 -403 527 -395 ct 548 -387 567 -378 586 -368 ct 604 -358 620 -345 633 -330 ct 
647 -315 657 -298 665 -278 ct 673 -258 676 -234 676 -206 ct p ef
pom

0.880 c 17695 11036 m  18277 11036 18722 11492 18722 12089 ct 18722 12687 18277 13143 17695 13143 ct 
17114 13143 16670 12687 16670 12089 ct 16670 11492 17114 11036 17695 11036 ct 
p ef
0.500 c 17695 11036 m  18277 11036 18722 11492 18722 12089 ct 18722 12687 18277 13143 17695 13143 ct 
17114 13143 16670 12687 16670 12089 ct 16670 11492 17114 11036 17695 11036 ct 
pc
16670 11036 m  16670 11036 l  pc
18723 13144 m  18723 13144 l  pc
pum
17343 12468 t
0.000 c 676 -206 m  676 -137 649 -84 595 -46 ct 541 -8 465 11 367 11 ct 184 11 79 -52 49 -179 ct 
148 -199 l  159 -154 183 -121 220 -100 ct 257 -79 307 -68 371 -68 ct 436 -68 487 -79 522 -102 ct 
558 -125 576 -158 576 -201 ct 576 -226 570 -245 559 -261 ct 548 -276 532 -289 512 -298 ct 
492 -308 468 -317 440 -323 ct 412 -330 381 -337 347 -345 ct 287 -358 243 -372 212 -385 ct 
181 -398 157 -412 139 -428 ct 122 -445 108 -463 99 -485 ct 89 -507 85 -532 85 -560 ct 
85 -624 109 -673 158 -708 ct 207 -743 278 -760 369 -760 ct 454 -760 519 -747 564 -721 ct 
609 -695 641 -650 659 -588 ct 559 -570 l  548 -610 527 -639 496 -657 ct 465 -674 423 -683 368 -683 ct 
308 -683 262 -674 231 -654 ct 199 -634 183 -604 183 -565 ct 183 -542 190 -523 202 -508 ct 
214 -493 232 -480 255 -469 ct 278 -459 324 -446 392 -431 ct 415 -426 438 -420 461 -415 ct 
484 -409 506 -403 527 -395 ct 548 -387 567 -378 586 -368 ct 604 -358 620 -345 633 -330 ct 
647 -315 657 -298 665 -278 ct 673 -258 676 -234 676 -206 ct p ef
pom

0.880 c 20294 11028 m  20876 11028 21321 11484 21321 12082 ct 21321 12679 20876 13135 20294 13135 ct 
19713 13135 19269 12679 19269 12082 ct 19269 11484 19713 11028 20294 11028 ct 
p ef
0.500 c 20294 11028 m  20876 11028 21321 11484 21321 12082 ct 21321 12679 20876 13135 20294 13135 ct 
19713 13135 19269 12679 19269 12082 ct 19269 11484 19713 11028 20294 11028 ct 
pc
19269 11028 m  19269 11028 l  pc
21322 13136 m  21322 13136 l  pc
pum
19943 12460 t
0.000 c 676 -206 m  676 -137 649 -84 595 -46 ct 541 -8 465 11 367 11 ct 184 11 79 -52 49 -179 ct 
148 -199 l  159 -154 183 -121 220 -100 ct 257 -79 307 -68 371 -68 ct 436 -68 487 -79 522 -102 ct 
558 -125 576 -158 576 -201 ct 576 -226 570 -245 559 -261 ct 548 -276 532 -289 512 -298 ct 
492 -308 468 -317 440 -323 ct 412 -330 381 -337 347 -345 ct 287 -358 243 -372 212 -385 ct 
181 -398 157 -412 139 -428 ct 122 -445 108 -463 99 -485 ct 89 -507 85 -532 85 -560 ct 
85 -624 109 -673 158 -708 ct 207 -743 278 -760 369 -760 ct 454 -760 519 -747 564 -721 ct 
609 -695 641 -650 659 -588 ct 559 -570 l  548 -610 527 -639 496 -657 ct 465 -674 423 -683 368 -683 ct 
308 -683 262 -674 231 -654 ct 199 -634 183 -604 183 -565 ct 183 -542 190 -523 202 -508 ct 
214 -493 232 -480 255 -469 ct 278 -459 324 -446 392 -431 ct 415 -426 438 -420 461 -415 ct 
484 -409 506 -403 527 -395 ct 548 -387 567 -378 586 -368 ct 604 -358 620 -345 633 -330 ct 
647 -315 657 -298 665 -278 ct 673 -258 676 -234 676 -206 ct p ef
pom

0.880 c 22756 11028 m  23338 11028 23783 11484 23783 12082 ct 23783 12679 23338 13135 22756 13135 ct 
22175 13135 21731 12679 21731 12082 ct 21731 11484 22175 11028 22756 11028 ct 
p ef
0.500 c 22756 11028 m  23338 11028 23783 11484 23783 12082 ct 23783 12679 23338 13135 22756 13135 ct 
22175 13135 21731 12679 21731 12082 ct 21731 11484 22175 11028 22756 11028 ct 
pc
21731 11028 m  21731 11028 l  pc
23784 13136 m  23784 13136 l  pc
pum
22405 12460 t
0.000 c 676 -206 m  676 -137 649 -84 595 -46 ct 541 -8 465 11 367 11 ct 184 11 79 -52 49 -179 ct 
148 -199 l  159 -154 183 -121 220 -100 ct 257 -79 307 -68 371 -68 ct 436 -68 487 -79 522 -102 ct 
558 -125 576 -158 576 -201 ct 576 -226 570 -245 559 -261 ct 548 -276 532 -289 512 -298 ct 
492 -308 468 -317 440 -323 ct 412 -330 381 -337 347 -345 ct 287 -358 243 -372 212 -385 ct 
181 -398 157 -412 139 -428 ct 122 -445 108 -463 99 -485 ct 89 -507 85 -532 85 -560 ct 
85 -624 109 -673 158 -708 ct 207 -743 278 -760 369 -760 ct 454 -760 519 -747 564 -721 ct 
609 -695 641 -650 659 -588 ct 559 -570 l  548 -610 527 -639 496 -657 ct 465 -674 423 -683 368 -683 ct 
308 -683 262 -674 231 -654 ct 199 -634 183 -604 183 -565 ct 183 -542 190 -523 202 -508 ct 
214 -493 232 -480 255 -469 ct 278 -459 324 -446 392 -431 ct 415 -426 438 -420 461 -415 ct 
484 -409 506 -403 527 -395 ct 548 -387 567 -378 586 -368 ct 604 -358 620 -345 633 -330 ct 
647 -315 657 -298 665 -278 ct 673 -258 676 -234 676 -206 ct p ef
pom

0.996 c 4563 3757 m  4990 3757 5316 4089 5316 4526 ct 5316 4962 4990 5296 4563 5296 ct 
4137 5296 3811 4962 3811 4526 ct 3811 4089 4137 3757 4563 3757 ct p ef
0.500 c 4563 3757 m  4990 3757 5316 4089 5316 4526 ct 5316 4962 4990 5296 4563 5296 ct 
4137 5296 3811 4962 3811 4526 ct 3811 4089 4137 3757 4563 3757 ct pc
3811 3757 m  3811 3757 l  pc
5317 5297 m  5317 5297 l  pc
pum
4336 4770 t
0.000 c 378 0 m  186 -233 l  123 -185 l  123 0 l  57 0 l  57 -482 l  123 -482 l 
123 -241 l  355 -482 l  432 -482 l  227 -273 l  459 0 l  378 0 l  p ef
pom

0.996 c 6752 5156 m  7178 5156 7505 5489 7505 5925 ct 7505 6362 7178 6696 6752 6696 ct 
6325 6696 6000 6362 6000 5925 ct 6000 5489 6325 5156 6752 5156 ct p ef
0.500 c 6752 5156 m  7178 5156 7505 5489 7505 5925 ct 7505 6362 7178 6696 6752 6696 ct 
6325 6696 6000 6362 6000 5925 ct 6000 5489 6325 5156 6752 5156 ct pc
6000 5156 m  6000 5156 l  pc
7506 6697 m  7506 6697 l  pc
pum
6525 6170 t
0.000 c 378 0 m  186 -233 l  123 -185 l  123 0 l  57 0 l  57 -482 l  123 -482 l 
123 -241 l  355 -482 l  432 -482 l  227 -273 l  459 0 l  378 0 l  p ef
pom

0.996 c 9214 5156 m  9641 5156 9967 5489 9967 5925 ct 9967 6362 9641 6696 9214 6696 ct 
8788 6696 8462 6362 8462 5925 ct 8462 5489 8788 5156 9214 5156 ct p ef
0.500 c 9214 5156 m  9641 5156 9967 5489 9967 5925 ct 9967 6362 9641 6696 9214 6696 ct 
8788 6696 8462 6362 8462 5925 ct 8462 5489 8788 5156 9214 5156 ct pc
8462 5156 m  8462 5156 l  pc
9968 6697 m  9968 6697 l  pc
pum
8987 6170 t
0.000 c 378 0 m  186 -233 l  123 -185 l  123 0 l  57 0 l  57 -482 l  123 -482 l 
123 -241 l  355 -482 l  432 -482 l  227 -273 l  459 0 l  378 0 l  p ef
pom

0.996 c 11266 3757 m  11693 3757 12019 4089 12019 4526 ct 12019 4962 11693 5296 11266 5296 ct 
10839 5296 10514 4962 10514 4526 ct 10514 4089 10839 3757 11266 3757 ct p ef
0.500 c 11266 3757 m  11693 3757 12019 4089 12019 4526 ct 12019 4962 11693 5296 11266 5296 ct 
10839 5296 10514 4962 10514 4526 ct 10514 4089 10839 3757 11266 3757 ct pc
10514 3757 m  10514 3757 l  pc
12020 5297 m  12020 5297 l  pc
pum
11039 4770 t
0.000 c 378 0 m  186 -233 l  123 -185 l  123 0 l  57 0 l  57 -482 l  123 -482 l 
123 -241 l  355 -482 l  432 -482 l  227 -273 l  459 0 l  378 0 l  p ef
pom

9216 5157 m  8710 3037 l  ps
10735 3982 m  9011 2292 l  ps
5097 3982 m  6959 2292 l  ps
6754 5157 m  7259 3037 l  ps

pum
7502 9079 t
58 -242 m  58 -330 72 -409 99 -479 ct 127 -548 169 -614 226 -676 ct 305 -676 l 
248 -613 207 -546 180 -474 ct 154 -403 140 -326 140 -241 ct 140 -157 153 -79 180 -8 ct 
206 62 248 130 305 194 ct 226 194 l  169 132 126 66 99 -4 ct 72 -74 58 -153 58 -240 ct 
58 -242 l  p ef
495 9 m  445 9 408 -4 383 -30 ct 358 -57 346 -93 346 -139 ct 346 -190 362 -230 396 -257 ct 
430 -285 484 -298 558 -298 ct 669 -298 l  669 -326 l  669 -366 661 -396 644 -413 ct 
627 -431 600 -440 563 -440 ct 527 -440 500 -433 483 -421 ct 467 -408 456 -389 453 -361 ct 
368 -369 l  381 -458 447 -502 565 -502 ct 627 -502 674 -488 705 -459 ct 736 -431 752 -390 752 -336 ct 
752 -124 l  752 -100 755 -82 762 -69 ct 768 -57 780 -51 798 -51 ct 806 -51 815 -52 825 -54 ct 
825 -3 l  804 2 783 4 762 4 ct 731 4 709 -4 695 -20 ct 681 -36 674 -61 672 -94 ct 
669 -94 l  648 -57 624 -30 596 -14 ct 568 1 534 9 495 9 ct p
513 -53 m  543 -53 570 -59 593 -73 ct 617 -86 635 -105 649 -129 ct 662 -152 669 -177 669 -202 ct 
669 -242 l  579 -242 l  541 -242 512 -238 492 -231 ct 472 -224 456 -212 446 -197 ct 
435 -182 430 -162 430 -137 ct 430 -110 437 -89 452 -75 ct 466 -60 487 -53 513 -53 ct 
p ef
1065 -240 m  1065 -152 1051 -73 1024 -3 ct 996 66 954 132 897 194 ct 817 194 l 
875 130 916 63 943 -8 ct 969 -78 982 -156 982 -241 ct 982 -326 969 -404 943 -474 ct 
916 -545 874 -612 817 -676 ct 897 -676 l  954 -614 997 -548 1024 -478 ct 1051 -408 1065 -329 1065 -242 ct 
1065 -240 l  p ef
pom

pum
18993 9079 t
58 -242 m  58 -330 72 -409 99 -479 ct 127 -548 169 -614 226 -676 ct 305 -676 l 
248 -613 207 -546 180 -474 ct 154 -403 140 -326 140 -241 ct 140 -157 153 -79 180 -8 ct 
206 62 248 130 305 194 ct 226 194 l  169 132 126 66 99 -4 ct 72 -74 58 -153 58 -240 ct 
58 -242 l  p ef
786 -249 m  786 -77 725 9 604 9 ct 567 9 536 2 511 -11 ct 486 -25 466 -47 451 -77 ct 
450 -77 l  450 -67 449 -53 448 -34 ct 447 -14 446 -3 445 0 ct 366 0 l  368 -16 369 -50 369 -102 ct 
369 -676 l  451 -676 l  451 -483 l  451 -464 450 -440 449 -414 ct 451 -414 l 
466 -445 486 -468 511 -482 ct 536 -495 567 -502 604 -502 ct 667 -502 712 -481 742 -439 ct 
771 -397 786 -334 786 -249 ct p
700 -246 m  700 -315 691 -364 672 -394 ct 654 -424 624 -439 583 -439 ct 537 -439 504 -423 483 -391 ct 
461 -360 451 -310 451 -241 ct 451 -176 461 -129 482 -98 ct 503 -67 536 -52 583 -52 ct 
624 -52 654 -67 672 -97 ct 690 -128 700 -177 700 -246 ct p ef
1065 -240 m  1065 -152 1051 -73 1024 -3 ct 996 66 954 132 897 194 ct 817 194 l 
875 130 916 63 943 -8 ct 969 -78 982 -156 982 -241 ct 982 -326 969 -404 943 -474 ct 
916 -545 874 -612 817 -676 ct 897 -676 l  954 -614 997 -548 1024 -478 ct 1051 -408 1065 -329 1065 -242 ct 
1065 -240 l  p ef
pom

pum
7455 20282 t
58 -242 m  58 -330 72 -409 99 -479 ct 127 -548 169 -614 226 -676 ct 305 -676 l 
248 -613 207 -546 180 -474 ct 154 -403 140 -326 140 -241 ct 140 -157 153 -79 180 -8 ct 
206 62 248 130 305 194 ct 226 194 l  169 132 126 66 99 -4 ct 72 -74 58 -153 58 -240 ct 
58 -242 l  p ef
431 -249 m  431 -183 442 -135 462 -103 ct 483 -71 514 -56 556 -56 ct 585 -56 609 -63 629 -79 ct 
648 -94 660 -118 665 -150 ct 748 -150 l  742 -101 721 -63 687 -34 ct 653 -5 610 9 558 9 ct 
489 9 436 -13 400 -56 ct 364 -100 346 -163 346 -247 ct 346 -330 364 -393 400 -437 ct 
437 -480 489 -502 557 -502 ct 607 -502 649 -489 683 -463 ct 716 -437 737 -401 745 -355 ct 
661 -349 l  657 -376 646 -398 629 -414 ct 611 -430 587 -438 555 -438 ct 511 -438 480 -423 460 -395 ct 
441 -366 431 -317 431 -249 ct p ef
1015 -240 m  1015 -152 1001 -73 974 -3 ct 946 66 904 132 847 194 ct 767 194 l 
825 130 866 63 893 -8 ct 919 -78 932 -156 932 -241 ct 932 -326 919 -404 893 -474 ct 
866 -545 824 -612 767 -676 ct 847 -676 l  904 -614 947 -548 974 -478 ct 1001 -408 1015 -329 1015 -242 ct 
1015 -240 l  p ef
pom

pum
18993 20219 t
58 -242 m  58 -330 72 -409 99 -479 ct 127 -548 169 -614 226 -676 ct 305 -676 l 
248 -613 207 -546 180 -474 ct 154 -403 140 -326 140 -241 ct 140 -157 153 -79 180 -8 ct 
206 62 248 130 305 194 ct 226 194 l  169 132 126 66 99 -4 ct 72 -74 58 -153 58 -240 ct 
58 -242 l  p ef
680 -79 m  665 -48 645 -25 620 -12 ct 595 2 564 9 527 9 ct 464 9 418 -12 389 -54 ct 
360 -96 345 -159 345 -244 ct 345 -416 406 -502 527 -502 ct 564 -502 595 -495 620 -482 ct 
645 -468 665 -446 680 -416 ct 681 -416 l  680 -471 l  680 -676 l  762 -676 l 
762 -102 l  762 -50 763 -16 765 0 ct 686 0 l  685 -5 685 -16 683 -34 ct 682 -51 682 -67 682 -79 ct 
680 -79 l  p
431 -247 m  431 -178 440 -129 459 -99 ct 477 -69 506 -54 547 -54 ct 594 -54 628 -70 649 -103 ct 
670 -135 680 -185 680 -252 ct 680 -318 670 -366 649 -396 ct 628 -426 594 -441 548 -441 ct 
507 -441 477 -426 459 -396 ct 440 -365 431 -316 431 -247 ct p ef
1065 -240 m  1065 -152 1051 -73 1024 -3 ct 996 66 954 132 897 194 ct 817 194 l 
875 130 916 63 943 -8 ct 969 -78 982 -156 982 -241 ct 982 -326 969 -404 943 -474 ct 
916 -545 874 -612 817 -676 ct 897 -676 l  954 -614 997 -548 1024 -478 ct 1051 -408 1065 -329 1065 -242 ct 
1065 -240 l  p ef
pom
0.996 c 11403 9495 m  11829 9495 12156 9828 12156 10264 ct 12156 10701 11829 11035 11403 11035 ct 
10976 11035 10651 10701 10651 10264 ct 10651 9828 10976 9495 11403 9495 ct p ef
0.500 c 11403 9495 m  11829 9495 12156 9828 12156 10264 ct 12156 10701 11829 11035 11403 11035 ct 
10976 11035 10651 10701 10651 10264 ct 10651 9828 10976 9495 11403 9495 ct pc
10651 9495 m  10651 9495 l  pc
12157 11036 m  12157 11036 l  pc
pum
11176 10508 t
0.000 c 430 -337 m  430 -292 415 -255 385 -228 ct 356 -201 315 -188 264 -188 ct 
123 -188 l  123 0 l  57 0 l  57 -482 l  260 -482 l  314 -482 356 -470 386 -444 ct 
415 -419 430 -383 430 -337 ct p
364 -337 m  364 -399 327 -430 252 -430 ct 123 -430 l  123 -240 l  255 -240 l 
328 -240 364 -272 364 -337 ct p ef
pom

0.996 c 11267 3758 m  11694 3758 12020 4090 12020 4527 ct 12020 4963 11694 5297 11267 5297 ct 
10841 5297 10515 4963 10515 4527 ct 10515 4090 10841 3758 11267 3758 ct p ef
0.500 c 11267 3758 m  11694 3758 12020 4090 12020 4527 ct 12020 4963 11694 5297 11267 5297 ct 
10841 5297 10515 4963 10515 4527 ct 10515 4090 10841 3758 11267 3758 ct pc
10515 3758 m  10515 3758 l  pc
12021 5298 m  12021 5298 l  pc
pum
11040 4771 t
0.000 c 378 0 m  186 -233 l  123 -185 l  123 0 l  57 0 l  57 -482 l  123 -482 l 
123 -241 l  355 -482 l  432 -482 l  227 -273 l  459 0 l  378 0 l  p ef
pom

0.996 c 13044 11035 m  13471 11035 13797 11368 13797 11804 ct 13797 12240 13471 12574 13044 12574 ct 
12618 12574 12292 12240 12292 11804 ct 12292 11368 12618 11035 13044 11035 ct 
p ef
0.500 c 13044 11035 m  13471 11035 13797 11368 13797 11804 ct 13797 12240 13471 12574 13044 12574 ct 
12618 12574 12292 12240 12292 11804 ct 12292 11368 12618 11035 13044 11035 ct 
pc
12292 11035 m  12292 11035 l  pc
13798 12575 m  13798 12575 l  pc
pum
12818 12048 t
0.000 c 430 -337 m  430 -292 415 -255 385 -228 ct 356 -201 315 -188 264 -188 ct 
123 -188 l  123 0 l  57 0 l  57 -482 l  260 -482 l  314 -482 356 -470 386 -444 ct 
415 -419 430 -383 430 -337 ct p
364 -337 m  364 -399 327 -430 252 -430 ct 123 -430 l  123 -240 l  255 -240 l 
328 -240 364 -272 364 -337 ct p ef
pom

0.996 c 11676 12854 m  12103 12854 12429 13187 12429 13624 ct 12429 14060 12103 14394 11676 14394 ct 
11250 14394 10925 14060 10925 13624 ct 10925 13187 11250 12854 11676 12854 ct 
p ef
0.500 c 11676 12854 m  12103 12854 12429 13187 12429 13624 ct 12429 14060 12103 14394 11676 14394 ct 
11250 14394 10925 14060 10925 13624 ct 10925 13187 11250 12854 11676 12854 ct 
pc
10925 12854 m  10925 12854 l  pc
12430 14395 m  12430 14395 l  pc
pum
11450 13868 t
0.000 c 430 -337 m  430 -292 415 -255 385 -228 ct 356 -201 315 -188 264 -188 ct 
123 -188 l  123 0 l  57 0 l  57 -482 l  260 -482 l  314 -482 356 -470 386 -444 ct 
415 -419 430 -383 430 -337 ct p
364 -337 m  364 -399 327 -430 252 -430 ct 123 -430 l  123 -240 l  255 -240 l 
328 -240 364 -272 364 -337 ct p ef
pom

0.996 c 6205 15934 m  6631 15934 6958 16266 6958 16703 ct 6958 17139 6631 17473 6205 17473 ct 
5778 17473 5453 17139 5453 16703 ct 5453 16266 5778 15934 6205 15934 ct p ef
0.500 c 6205 15934 m  6631 15934 6958 16266 6958 16703 ct 6958 17139 6631 17473 6205 17473 ct 
5778 17473 5453 17139 5453 16703 ct 5453 16266 5778 15934 6205 15934 ct pc
5453 15934 m  5453 15934 l  pc
6959 17474 m  6959 17474 l  pc
pum
5978 16947 t
0.000 c 430 -337 m  430 -292 415 -255 385 -228 ct 356 -201 315 -188 264 -188 ct 
123 -188 l  123 0 l  57 0 l  57 -482 l  260 -482 l  314 -482 356 -470 386 -444 ct 
415 -419 430 -383 430 -337 ct p
364 -337 m  364 -399 327 -430 252 -430 ct 123 -430 l  123 -240 l  255 -240 l 
328 -240 364 -272 364 -337 ct p ef
pom

0.996 c 7983 17473 m  8410 17473 8736 17806 8736 18242 ct 8736 18679 8410 19013 7983 19013 ct 
7556 19013 7231 18679 7231 18242 ct 7231 17806 7556 17473 7983 17473 ct p ef
0.500 c 7983 17473 m  8410 17473 8736 17806 8736 18242 ct 8736 18679 8410 19013 7983 19013 ct 
7556 19013 7231 18679 7231 18242 ct 7231 17806 7556 17473 7983 17473 ct pc
7231 17473 m  7231 17473 l  pc
8737 19014 m  8737 19014 l  pc
pum
7756 18487 t
0.000 c 430 -337 m  430 -292 415 -255 385 -228 ct 356 -201 315 -188 264 -188 ct 
123 -188 l  123 0 l  57 0 l  57 -482 l  260 -482 l  314 -482 356 -470 386 -444 ct 
415 -419 430 -383 430 -337 ct p
364 -337 m  364 -399 327 -430 252 -430 ct 123 -430 l  123 -240 l  255 -240 l 
328 -240 364 -272 364 -337 ct p ef
pom

0.996 c 9624 15934 m  10051 15934 10377 16266 10377 16703 ct 10377 17139 10051 17473 9624 17473 ct 
9198 17473 8873 17139 8873 16703 ct 8873 16266 9198 15934 9624 15934 ct p ef
0.500 c 9624 15934 m  10051 15934 10377 16266 10377 16703 ct 10377 17139 10051 17473 9624 17473 ct 
9198 17473 8873 17139 8873 16703 ct 8873 16266 9198 15934 9624 15934 ct pc
8873 15934 m  8873 15934 l  pc
10378 17474 m  10378 17474 l  pc
pum
9398 16947 t
0.000 c 430 -337 m  430 -292 415 -255 385 -228 ct 356 -201 315 -188 264 -188 ct 
123 -188 l  123 0 l  57 0 l  57 -482 l  260 -482 l  314 -482 356 -470 386 -444 ct 
415 -419 430 -383 430 -337 ct p
364 -337 m  364 -399 327 -430 252 -430 ct 123 -430 l  123 -240 l  255 -240 l 
328 -240 364 -272 364 -337 ct p ef
pom

0.996 c 4290 9775 m  4716 9775 5042 10108 5042 10544 ct 5042 10981 4716 11315 4290 11315 ct 
3863 11315 3538 10981 3538 10544 ct 3538 10108 3863 9775 4290 9775 ct p ef
0.500 c 4290 9775 m  4716 9775 5042 10108 5042 10544 ct 5042 10981 4716 11315 4290 11315 ct 
3863 11315 3538 10981 3538 10544 ct 3538 10108 3863 9775 4290 9775 ct pc
3538 9775 m  3538 9775 l  pc
5044 11316 m  5044 11316 l  pc
pum
4063 10788 t
0.000 c 430 -337 m  430 -292 415 -255 385 -228 ct 356 -201 315 -188 264 -188 ct 
123 -188 l  123 0 l  57 0 l  57 -482 l  260 -482 l  314 -482 356 -470 386 -444 ct 
415 -419 430 -383 430 -337 ct p
364 -337 m  364 -399 327 -430 252 -430 ct 123 -430 l  123 -240 l  255 -240 l 
328 -240 364 -272 364 -337 ct p ef
pom

0.996 c 2511 11735 m  2938 11735 3264 12067 3264 12504 ct 3264 12940 2938 13274 2511 13274 ct 
2085 13274 1759 12940 1759 12504 ct 1759 12067 2085 11735 2511 11735 ct p ef
0.500 c 2511 11735 m  2938 11735 3264 12067 3264 12504 ct 3264 12940 2938 13274 2511 13274 ct 
2085 13274 1759 12940 1759 12504 ct 1759 12067 2085 11735 2511 11735 ct pc
1759 11735 m  1759 11735 l  pc
3265 13275 m  3265 13275 l  pc
pum
2285 12748 t
0.000 c 430 -337 m  430 -292 415 -255 385 -228 ct 356 -201 315 -188 264 -188 ct 
123 -188 l  123 0 l  57 0 l  57 -482 l  260 -482 l  314 -482 356 -470 386 -444 ct 
415 -419 430 -383 430 -337 ct p
364 -337 m  364 -399 327 -430 252 -430 ct 123 -430 l  123 -240 l  255 -240 l 
328 -240 364 -272 364 -337 ct p ef
pom

0.996 c 4290 13134 m  4716 13134 5042 13467 5042 13904 ct 5042 14340 4716 14674 4290 14674 ct 
3863 14674 3538 14340 3538 13904 ct 3538 13467 3863 13134 4290 13134 ct p ef
0.500 c 4290 13134 m  4716 13134 5042 13467 5042 13904 ct 5042 14340 4716 14674 4290 14674 ct 
3863 14674 3538 14340 3538 13904 ct 3538 13467 3863 13134 4290 13134 ct pc
3538 13134 m  3538 13134 l  pc
5044 14675 m  5044 14675 l  pc
pum
4063 14148 t
0.000 c 430 -337 m  430 -292 415 -255 385 -228 ct 356 -201 315 -188 264 -188 ct 
123 -188 l  123 0 l  57 0 l  57 -482 l  260 -482 l  314 -482 356 -470 386 -444 ct 
415 -419 430 -383 430 -337 ct p
364 -337 m  364 -399 327 -430 252 -430 ct 123 -430 l  123 -240 l  255 -240 l 
328 -240 364 -272 364 -337 ct p ef
pom

0.996 c 16738 1517 m  17164 1517 17491 1850 17491 2286 ct 17491 2723 17164 3057 16738 3057 ct 
16311 3057 15986 2723 15986 2286 ct 15986 1850 16311 1517 16738 1517 ct p ef
0.500 c 16738 1517 m  17164 1517 17491 1850 17491 2286 ct 17491 2723 17164 3057 16738 3057 ct 
16311 3057 15986 2723 15986 2286 ct 15986 1850 16311 1517 16738 1517 ct pc
15986 1517 m  15986 1517 l  pc
17492 3058 m  17492 3058 l  pc
pum
16511 2530 t
0.000 c 430 -337 m  430 -292 415 -255 385 -228 ct 356 -201 315 -188 264 -188 ct 
123 -188 l  123 0 l  57 0 l  57 -482 l  260 -482 l  314 -482 356 -470 386 -444 ct 
415 -419 430 -383 430 -337 ct p
364 -337 m  364 -399 327 -430 252 -430 ct 123 -430 l  123 -240 l  255 -240 l 
328 -240 364 -272 364 -337 ct p ef
pom

0.996 c 18790 3897 m  19216 3897 19542 4229 19542 4666 ct 19542 5102 19216 5436 18790 5436 ct 
18363 5436 18038 5102 18038 4666 ct 18038 4229 18363 3897 18790 3897 ct p ef
0.500 c 18790 3897 m  19216 3897 19542 4229 19542 4666 ct 19542 5102 19216 5436 18790 5436 ct 
18363 5436 18038 5102 18038 4666 ct 18038 4229 18363 3897 18790 3897 ct pc
18038 3897 m  18038 3897 l  pc
19543 5437 m  19543 5437 l  pc
pum
18563 4910 t
0.000 c 430 -337 m  430 -292 415 -255 385 -228 ct 356 -201 315 -188 264 -188 ct 
123 -188 l  123 0 l  57 0 l  57 -482 l  260 -482 l  314 -482 356 -470 386 -444 ct 
415 -419 430 -383 430 -337 ct p
364 -337 m  364 -399 327 -430 252 -430 ct 123 -430 l  123 -240 l  255 -240 l 
328 -240 364 -272 364 -337 ct p ef
pom

0.996 c 20294 1377 m  20721 1377 21047 1710 21047 2146 ct 21047 2583 20721 2917 20294 2917 ct 
19868 2917 19542 2583 19542 2146 ct 19542 1710 19868 1377 20294 1377 ct p ef
0.500 c 20294 1377 m  20721 1377 21047 1710 21047 2146 ct 21047 2583 20721 2917 20294 2917 ct 
19868 2917 19542 2583 19542 2146 ct 19542 1710 19868 1377 20294 1377 ct pc
19542 1377 m  19542 1377 l  pc
21048 2918 m  21048 2918 l  pc
pum
20067 2390 t
0.000 c 430 -337 m  430 -292 415 -255 385 -228 ct 356 -201 315 -188 264 -188 ct 
123 -188 l  123 0 l  57 0 l  57 -482 l  260 -482 l  314 -482 356 -470 386 -444 ct 
415 -419 430 -383 430 -337 ct p
364 -337 m  364 -399 327 -430 252 -430 ct 123 -430 l  123 -240 l  255 -240 l 
328 -240 364 -272 364 -337 ct p ef
pom

0.996 c 23304 3897 m  23730 3897 24057 4229 24057 4666 ct 24057 5102 23730 5436 23304 5436 ct 
22877 5436 22552 5102 22552 4666 ct 22552 4229 22877 3897 23304 3897 ct p ef
0.500 c 23304 3897 m  23730 3897 24057 4229 24057 4666 ct 24057 5102 23730 5436 23304 5436 ct 
22877 5436 22552 5102 22552 4666 ct 22552 4229 22877 3897 23304 3897 ct pc
22552 3897 m  22552 3897 l  pc
24058 5437 m  24058 5437 l  pc
pum
23077 4910 t
0.000 c 430 -337 m  430 -292 415 -255 385 -228 ct 356 -201 315 -188 264 -188 ct 
123 -188 l  123 0 l  57 0 l  57 -482 l  260 -482 l  314 -482 356 -470 386 -444 ct 
415 -419 430 -383 430 -337 ct p
364 -337 m  364 -399 327 -430 252 -430 ct 123 -430 l  123 -240 l  255 -240 l 
328 -240 364 -272 364 -337 ct p ef
pom

0.996 c 17148 6136 m  17575 6136 17901 6469 17901 6905 ct 17901 7342 17575 7676 17148 7676 ct 
16721 7676 16396 7342 16396 6905 ct 16396 6469 16721 6136 17148 6136 ct p ef
0.500 c 17148 6136 m  17575 6136 17901 6469 17901 6905 ct 17901 7342 17575 7676 17148 7676 ct 
16721 7676 16396 7342 16396 6905 ct 16396 6469 16721 6136 17148 6136 ct pc
16396 6136 m  16396 6136 l  pc
17902 7677 m  17902 7677 l  pc
pum
16921 7149 t
0.000 c 430 -337 m  430 -292 415 -255 385 -228 ct 356 -201 315 -188 264 -188 ct 
123 -188 l  123 0 l  57 0 l  57 -482 l  260 -482 l  314 -482 356 -470 386 -444 ct 
415 -419 430 -383 430 -337 ct p
364 -337 m  364 -399 327 -430 252 -430 ct 123 -430 l  123 -240 l  255 -240 l 
328 -240 364 -272 364 -337 ct p ef
pom

0.996 c 21252 6136 m  21678 6136 22005 6469 22005 6905 ct 22005 7342 21678 7676 21252 7676 ct 
20825 7676 20500 7342 20500 6905 ct 20500 6469 20825 6136 21252 6136 ct p ef
0.500 c 21252 6136 m  21678 6136 22005 6469 22005 6905 ct 22005 7342 21678 7676 21252 7676 ct 
20825 7676 20500 7342 20500 6905 ct 20500 6469 20825 6136 21252 6136 ct pc
20500 6136 m  20500 6136 l  pc
22006 7677 m  22006 7677 l  pc
pum
21025 7149 t
0.000 c 430 -337 m  430 -292 415 -255 385 -228 ct 356 -201 315 -188 264 -188 ct 
123 -188 l  123 0 l  57 0 l  57 -482 l  260 -482 l  314 -482 356 -470 386 -444 ct 
415 -419 430 -383 430 -337 ct p
364 -337 m  364 -399 327 -430 252 -430 ct 123 -430 l  123 -240 l  255 -240 l 
328 -240 364 -272 364 -337 ct p ef
pom

0.996 c 16190 14954 m  16617 14954 16943 15287 16943 15723 ct 16943 16159 16617 16493 16190 16493 ct 
15764 16493 15439 16159 15439 15723 ct 15439 15287 15764 14954 16190 14954 ct 
p ef
0.500 c 16190 14954 m  16617 14954 16943 15287 16943 15723 ct 16943 16159 16617 16493 16190 16493 ct 
15764 16493 15439 16159 15439 15723 ct 15439 15287 15764 14954 16190 14954 ct 
pc
15439 14954 m  15439 14954 l  pc
16944 16495 m  16944 16495 l  pc
pum
15964 15967 t
0.000 c 430 -337 m  430 -292 415 -255 385 -228 ct 356 -201 315 -188 264 -188 ct 
123 -188 l  123 0 l  57 0 l  57 -482 l  260 -482 l  314 -482 356 -470 386 -444 ct 
415 -419 430 -383 430 -337 ct p
364 -337 m  364 -399 327 -430 252 -430 ct 123 -430 l  123 -240 l  255 -240 l 
328 -240 364 -272 364 -337 ct p ef
pom

0.996 c 24113 15002 m  24539 15002 24865 15335 24865 15772 ct 24865 16208 24539 16542 24113 16542 ct 
23686 16542 23361 16208 23361 15772 ct 23361 15335 23686 15002 24113 15002 ct 
p ef
0.500 c 24113 15002 m  24539 15002 24865 15335 24865 15772 ct 24865 16208 24539 16542 24113 16542 ct 
23686 16542 23361 16208 23361 15772 ct 23361 15335 23686 15002 24113 15002 ct 
pc
23361 15002 m  23361 15002 l  pc
24867 16543 m  24867 16543 l  pc
pum
23886 16016 t
0.000 c 430 -337 m  430 -292 415 -255 385 -228 ct 356 -201 315 -188 264 -188 ct 
123 -188 l  123 0 l  57 0 l  57 -482 l  260 -482 l  314 -482 356 -470 386 -444 ct 
415 -419 430 -383 430 -337 ct p
364 -337 m  364 -399 327 -430 252 -430 ct 123 -430 l  123 -240 l  255 -240 l 
328 -240 364 -272 364 -337 ct p ef
pom

0.996 c 18242 17193 m  18669 17193 18995 17526 18995 17963 ct 18995 18399 18669 18733 18242 18733 ct 
17816 18733 17491 18399 17491 17963 ct 17491 17526 17816 17193 18242 17193 ct 
p ef
0.500 c 18242 17193 m  18669 17193 18995 17526 18995 17963 ct 18995 18399 18669 18733 18242 18733 ct 
17816 18733 17491 18399 17491 17963 ct 17491 17526 17816 17193 18242 17193 ct 
pc
17491 17193 m  17491 17193 l  pc
18996 18734 m  18996 18734 l  pc
pum
18016 18207 t
0.000 c 430 -337 m  430 -292 415 -255 385 -228 ct 356 -201 315 -188 264 -188 ct 
123 -188 l  123 0 l  57 0 l  57 -482 l  260 -482 l  314 -482 356 -470 386 -444 ct 
415 -419 430 -383 430 -337 ct p
364 -337 m  364 -399 327 -430 252 -430 ct 123 -430 l  123 -240 l  255 -240 l 
328 -240 364 -272 364 -337 ct p ef
pom

0.996 c 20294 17193 m  20721 17193 21047 17526 21047 17963 ct 21047 18399 20721 18733 20294 18733 ct 
19868 18733 19542 18399 19542 17963 ct 19542 17526 19868 17193 20294 17193 ct 
p ef
0.500 c 20294 17193 m  20721 17193 21047 17526 21047 17963 ct 21047 18399 20721 18733 20294 18733 ct 
19868 18733 19542 18399 19542 17963 ct 19542 17526 19868 17193 20294 17193 ct 
pc
19542 17193 m  19542 17193 l  pc
21048 18734 m  21048 18734 l  pc
pum
20067 18207 t
0.000 c 430 -337 m  430 -292 415 -255 385 -228 ct 356 -201 315 -188 264 -188 ct 
123 -188 l  123 0 l  57 0 l  57 -482 l  260 -482 l  314 -482 356 -470 386 -444 ct 
415 -419 430 -383 430 -337 ct p
364 -337 m  364 -399 327 -430 252 -430 ct 123 -430 l  123 -240 l  255 -240 l 
328 -240 364 -272 364 -337 ct p ef
pom

0.996 c 22209 17193 m  22636 17193 22962 17526 22962 17963 ct 22962 18399 22636 18733 22209 18733 ct 
21783 18733 21458 18399 21458 17963 ct 21458 17526 21783 17193 22209 17193 ct 
p ef
0.500 c 22209 17193 m  22636 17193 22962 17526 22962 17963 ct 22962 18399 22636 18733 22209 18733 ct 
21783 18733 21458 18399 21458 17963 ct 21458 17526 21783 17193 22209 17193 ct 
pc
21458 17193 m  21458 17193 l  pc
22963 18734 m  22963 18734 l  pc
pum
21983 18207 t
0.000 c 430 -337 m  430 -292 415 -255 385 -228 ct 356 -201 315 -188 264 -188 ct 
123 -188 l  123 0 l  57 0 l  57 -482 l  260 -482 l  314 -482 356 -470 386 -444 ct 
415 -419 430 -383 430 -337 ct p
364 -337 m  364 -399 327 -430 252 -430 ct 123 -430 l  123 -240 l  255 -240 l 
328 -240 364 -272 364 -337 ct p ef
pom

18245 17194 m  18245 17194 l  pc
51 lw 0.597 c 16261 13276 m  16261 12482 16261 11690 16261 10896 ct 18905 10896 21550 10896 24195 10896 ct 
24195 11690 24195 12482 24195 13276 ct 23647 13285 16904 13279 16261 13276 ct 
pc
0 lw 0.000 c 5344 11484 m  4824 11091 l  ps
5044 12229 m  3265 12506 l  ps
5344 12974 m  4824 13360 l  ps
10352 11484 m  10872 10811 l  ps
10652 12229 m  12294 11806 l  ps
10352 12974 m  10926 13626 l  ps
12211 13080 m  12513 12351 l  ps
6739 16159 m  7259 15633 l  ps
7985 17474 m  7985 15941 l  ps
9093 16159 m  8710 15633 l  ps
6739 17249 m  7452 17699 l  ps
17492 2289 m  19543 2149 l  ps
16740 3058 m  17150 6137 l  ps
17902 6907 m  20501 6907 l  ps
20828 2693 m  21254 6137 l  ps
20721 6362 m  19324 5212 l  ps
17682 6362 m  18259 5212 l  ps
19543 4668 m  22553 4668 l  ps
21786 6362 m  22773 5212 l  ps
17272 2833 m  22773 4122 l  ps
16944 15725 m  23362 15774 l  ps
18996 17965 m  19543 17965 l  ps
17711 17419 m  16725 16270 l  ps
16193 14955 m  16672 13274 l  ps
24115 15003 m  23783 13274 l  ps
23582 16318 m  22744 17419 l  ps
21048 17965 m  21459 17965 l  ps
6795 12974 m  7259 14143 l  ps
8710 14143 m  8901 12974 l  ps
7095 12229 m  8600 12229 l  ps
18245 17194 m  18313 13281 l  ps
22211 17194 m  22278 13274 l  ps
20296 17194 m  20363 13274 l  ps
gr
gs
0 0 m 27939 0 l 27939 21589 l 0 21589 l 0 0 l eoclip newpath
gr
gr
0 21590 t 
pom
count op_count sub {pop} repeat countdictstack dict_count sub {end} repeat b4_inc_state restore
%%PageTrailer
%%Trailer
%%EOF
