%!PS-Adobe-3.0 EPSF-3.0
%%BoundingBox: 19 62 675 609
%%HiResBoundingBox: 19.277734 62.751562 674.208594 608.056250
%.....................................
%%Creator: GPL Ghostscript 906 (epswrite)
%%CreationDate: 2013/05/12 17:43:12
%%DocumentData: Clean7Bit
%%LanguageLevel: 2
%%Modified by pscol v0.1b (Sun May 12 17:48:42 2013)
%%EndComments
%%BeginProlog
% This copyright applies to everything between here and the %%EndProlog:
% Copyright (C) 2012 Artifex Software, Inc.  All rights reserved.
%%BeginResource: procset GS_epswrite_2_0_1001 1.001 0
/GS_epswrite_2_0_1001 80 dict dup begin
/PageSize 2 array def/setpagesize{ PageSize aload pop 3 index eq exch
4 index eq and{ pop pop pop}{ PageSize dup  1
5 -1 roll put 0 4 -1 roll put dup null eq {false} {dup where} ifelse{ exch get exec}
{ pop/setpagedevice where
{ pop 1 dict dup /PageSize PageSize put setpagedevice}
{ /setpage where{ pop PageSize aload pop pageparams 3 {exch pop} repeat
setpage}if}ifelse}ifelse}ifelse} bind def
/!{bind def}bind def/#{load def}!/N/counttomark #
/rG{3{3 -1 roll 255 div}repeat setrgbcolor}!/G{255 div setgray}!/K{0 G}!
/r6{dup 3 -1 roll rG}!/r5{dup 3 1 roll rG}!/r3{dup rG}!
/w/setlinewidth #/J/setlinecap #
/j/setlinejoin #/M/setmiterlimit #/d/setdash #/i/setflat #
/m/moveto #/l/lineto #/c/rcurveto #
/p{N 2 idiv{N -2 roll rlineto}repeat}!
/P{N 0 gt{N -2 roll moveto p}if}!
/h{p closepath}!/H{P closepath}!
/lx{0 rlineto}!/ly{0 exch rlineto}!/v{0 0 6 2 roll c}!/y{2 copy c}!
/re{4 -2 roll m exch dup lx exch ly neg lx h}!
/^{3 index neg 3 index neg}!
/f{P fill}!/f*{P eofill}!/s{H stroke}!/S{P stroke}!
/q/gsave #/Q/grestore #/rf{re fill}!
/Y{P clip newpath}!/Y*{P eoclip newpath}!/rY{re Y}!
/|={pop exch 4 1 roll 1 array astore cvx 3 array astore cvx exch 1 index def exec}!
/|{exch string readstring |=}!
/+{dup type/nametype eq{2 index 7 add -3 bitshift 2 index mul}if}!
/@/currentfile #/${+ @ |}!
/B{{2 copy string{readstring pop}aload pop 4 array astore cvx
3 1 roll}repeat pop pop true}!
/Ix{[1 0 0 1 11 -2 roll exch neg exch neg]exch}!
/,{true exch Ix imagemask}!/If{false exch Ix imagemask}!/I{exch Ix image}!
/Ic{exch Ix false 3 colorimage}!
/F{/Columns counttomark 3 add -2 roll/Rows exch/K -1/BlackIs1 true>>
/CCITTFaxDecode filter}!/FX{<</EndOfBlock false F}!
/X{/ASCII85Decode filter}!/@X{@ X}!/&2{2 index 2 index}!
/@F{@ &2<<F}!/@C{@X &2 FX}!
/$X{+ @X |}!/&4{4 index 4 index}!/$F{+ @ &4<<F |}!/$C{+ @X &4 FX |}!
/IC{3 1 roll 10 dict begin 1{/ImageType/Interpolate/Decode/DataSource
/ImageMatrix/BitsPerComponent/Height/Width}{exch def}forall
currentdict end image}!
/~{@ read {pop} if}!
end def
%%EndResource
/pagesave null def
%%EndProlog
%%Page: 1 1
%%BeginPageSetup
GS_epswrite_2_0_1001 begin
/pagesave save store 197 dict begin
0.1 0.1 scale
%%EndPageSetup
gsave mark
Q q
0 312 7613 0 0 5807 ^ Y
230 G
1957.16 6080.06 m
164.94 0 290.77 -129.51 290.77 -298.7 c
0 -169.19 -125.83 -298.42 -290.77 -298.42 c
-164.94 0 -290.48 129.23 -290.48 298.42 c
0 169.19 125.55 298.7 290.48 298.7 c
f*
1 j
146 G
1957.16 6080.06 m
164.94 0 290.77 -129.51 290.77 -298.7 c
0 -169.19 -125.83 -298.42 -290.77 -298.42 c
-164.94 0 -290.48 129.23 -290.48 298.42 c
0 169.19 125.55 298.7 290.48 298.7 c
h
S
1666.68 6080.06 0 0 H
S
2248.5 5482.38 0 0 H
S
K
2048.98 5732.61 m
0 -19.55 -7.65 -34.57 -22.95 -45.34 c
-15.3 -10.77 -36.84 -16.15 -64.62 -16.15 c
-51.86 0 -81.62 17.86 -90.12 53.85 c
28.06 5.67 p
3.12 -12.75 9.92 -22.11 20.4 -28.06 c
10.49 -5.95 24.66 -9.07 42.8 -9.07 c
18.42 0 32.87 3.12 42.79 9.64 c
10.2 6.52 15.3 15.87 15.3 28.06 c
0 7.08 -1.7 12.47 -4.82 17 c
-3.12 4.25 -7.65 7.93 -13.32 10.48 c
-5.67 2.84 -12.47 5.39 -20.4 7.09 c
-7.94 1.98 -16.72 3.97 -26.36 6.23 c
-17 3.68 -29.47 7.65 -38.26 11.34 c
-8.79 3.68 -15.59 7.65 -20.69 12.19 c
-4.82 4.82 -8.79 9.92 -11.34 16.15 c
-2.84 6.23 -3.97 13.32 -3.97 21.25 c
0 18.14 6.8 32.02 20.69 41.95 c
13.89 9.92 34.01 14.73 59.8 14.73 c
24.09 0 42.51 -3.68 55.27 -11.05 c
12.75 -7.37 21.82 -20.12 26.92 -37.69 c
-28.34 -5.1 p
-3.12 11.34 -9.07 19.55 -17.86 24.66 c
-8.79 4.82 -20.69 7.37 -36.27 7.37 c
-17 0 -30.04 -2.55 -38.82 -8.22 c
-9.07 -5.67 -13.61 -14.17 -13.61 -25.22 c
0 -6.52 1.98 -11.9 5.39 -16.15 c
3.4 -4.25 8.5 -7.94 15.02 -11.05 c
6.52 -2.83 19.55 -6.52 38.82 -10.77 c
6.52 -1.41 13.04 -3.12 19.55 -4.54 c
6.52 -1.7 12.75 -3.4 18.7 -5.67 c
5.95 -2.27 11.34 -4.82 16.72 -7.65 c
5.1 -2.84 9.64 -6.52 13.32 -10.77 c
3.96 -4.25 6.8 -9.07 9.07 -14.74 c
2.27 -5.67 3.12 -12.47 3.12 -20.41 c
f*
230 G
1414.45 3263.63 m
164.94 0 290.77 -129.23 290.77 -298.42 c
0 -169.47 -125.83 -298.7 -290.77 -298.7 c
-164.94 0 -290.77 129.23 -290.77 298.7 c
0 169.19 125.83 298.42 290.77 298.42 c
f*
146 G
1414.45 3263.63 m
164.94 0 290.77 -129.23 290.77 -298.42 c
0 -169.47 -125.83 -298.7 -290.77 -298.7 c
-164.94 0 -290.77 129.23 -290.77 298.7 c
0 169.19 125.83 298.42 290.77 298.42 c
h
S
1123.68 3263.63 0 0 H
S
1705.5 2666.23 0 0 H
S
K
1506.27 2916.19 m
0 -19.55 -7.65 -34.58 -22.95 -45.34 c
-15.3 -10.77 -36.84 -16.16 -64.62 -16.16 c
-51.86 0 -81.62 17.86 -90.12 53.85 c
28.06 5.67 p
3.12 -12.75 9.92 -22.11 20.4 -28.06 c
10.49 -5.95 24.66 -9.07 42.8 -9.07 c
18.42 0 32.87 3.12 42.79 9.63 c
10.2 6.52 15.3 15.87 15.3 28.06 c
0 7.09 -1.7 12.47 -4.82 17 c
-3.12 4.25 -7.65 7.93 -13.32 10.48 c
-5.67 2.84 -12.47 5.39 -20.4 7.09 c
-7.94 1.98 -16.72 3.97 -26.36 6.23 c
-17 3.68 -29.47 7.65 -38.26 11.34 c
-8.79 3.68 -15.59 7.65 -20.69 12.19 c
-4.82 4.82 -8.79 9.92 -11.34 16.15 c
-2.84 6.23 -3.97 13.32 -3.97 21.25 c
0 18.14 6.8 32.03 20.69 41.95 c
13.89 9.92 34.01 14.74 59.8 14.74 c
24.09 0 42.51 -3.69 55.27 -11.05 c
12.75 -7.37 21.82 -20.12 26.92 -37.69 c
-28.34 -5.1 p
-3.12 11.34 -9.07 19.55 -17.86 24.66 c
-8.79 4.82 -20.69 7.37 -36.27 7.37 c
-17 0 -30.04 -2.55 -38.83 -8.22 c
-9.07 -5.67 -13.6 -14.17 -13.6 -25.22 c
0 -6.52 1.98 -11.9 5.39 -16.15 c
3.4 -4.25 8.5 -7.94 15.02 -11.05 c
6.52 -2.83 19.55 -6.52 38.82 -10.77 c
6.52 -1.41 13.04 -3.12 19.55 -4.53 c
6.52 -1.7 12.75 -3.4 18.7 -5.67 c
5.95 -2.27 11.34 -4.82 16.72 -7.65 c
5.1 -2.84 9.64 -6.52 13.32 -10.77 c
3.96 -4.25 6.8 -9.07 9.07 -14.74 c
2.27 -5.67 3.12 -12.47 3.12 -20.4 c
f*
230 G
2422.22 3263.63 m
164.94 0 291.05 -129.23 291.05 -298.42 c
0 -169.47 -126.11 -298.7 -291.05 -298.7 c
-164.65 0 -290.48 129.23 -290.48 298.7 c
0 169.19 125.83 298.42 290.48 298.42 c
f*
146 G
2422.22 3263.63 m
164.94 0 291.05 -129.23 291.05 -298.42 c
0 -169.47 -126.11 -298.7 -291.05 -298.7 c
-164.65 0 -290.48 129.23 -290.48 298.7 c
0 169.19 125.83 298.42 290.48 298.42 c
h
S
2131.73 3263.63 0 0 H
S
2713.55 2666.23 0 0 H
S
K
2514.32 2916.19 m
0 -19.55 -7.65 -34.58 -22.95 -45.34 c
-15.3 -10.77 -36.84 -16.16 -64.62 -16.16 c
-51.86 0 -81.62 17.86 -90.12 53.85 c
28.06 5.67 p
3.12 -12.75 9.92 -22.11 20.4 -28.06 c
10.49 -5.95 24.66 -9.07 42.79 -9.07 c
18.42 0 32.88 3.12 42.79 9.63 c
10.2 6.52 15.3 15.87 15.3 28.06 c
0 7.09 -1.7 12.47 -4.82 17 c
-3.12 4.25 -7.65 7.93 -13.32 10.48 c
-5.67 2.84 -12.47 5.39 -20.41 7.09 c
-7.93 1.98 -16.72 3.97 -26.36 6.23 c
-17 3.68 -29.47 7.65 -38.26 11.34 c
-8.79 3.68 -15.59 7.65 -20.69 12.19 c
-4.82 4.82 -8.79 9.92 -11.34 16.15 c
-2.84 6.23 -3.97 13.32 -3.97 21.25 c
0 18.14 6.8 32.03 20.69 41.95 c
13.89 9.92 34.01 14.74 59.8 14.74 c
24.09 0 42.51 -3.69 55.27 -11.05 c
12.75 -7.37 21.82 -20.12 26.92 -37.69 c
-28.34 -5.1 p
-3.12 11.34 -9.07 19.55 -17.86 24.66 c
-8.79 4.82 -20.69 7.37 -36.27 7.37 c
-17 0 -30.04 -2.55 -38.83 -8.22 c
-9.07 -5.67 -13.6 -14.17 -13.6 -25.22 c
0 -6.52 1.98 -11.9 5.38 -16.15 c
3.4 -4.25 8.5 -7.94 15.02 -11.05 c
6.52 -2.83 19.55 -6.52 38.82 -10.77 c
6.52 -1.41 13.04 -3.12 19.55 -4.53 c
6.52 -1.7 12.75 -3.4 18.7 -5.67 c
5.95 -2.27 11.34 -4.82 16.72 -7.65 c
5.1 -2.84 9.63 -6.52 13.32 -10.77 c
3.96 -4.25 6.8 -9.07 9.07 -14.74 c
2.27 -5.67 3.12 -12.47 3.12 -20.4 c
f*
230 G
1957.16 2510.36 m
164.94 0 290.77 -129.23 290.77 -298.7 c
0 -169.19 -125.83 -298.42 -290.77 -298.42 c
-164.94 0 -290.48 129.23 -290.48 298.42 c
0 169.47 125.55 298.7 290.48 298.7 c
f*
146 G
1957.16 2510.36 m
164.94 0 290.77 -129.23 290.77 -298.7 c
0 -169.19 -125.83 -298.42 -290.77 -298.42 c
-164.94 0 -290.48 129.23 -290.48 298.42 c
0 169.47 125.55 298.7 290.48 298.7 c
h
S
1666.68 2510.36 0 0 H
S
2248.5 1912.95 0 0 H
S
K
2048.98 2162.91 m
0 -19.55 -7.65 -34.57 -22.95 -45.34 c
-15.3 -10.77 -36.84 -16.16 -64.62 -16.16 c
-51.86 0 -81.62 17.86 -90.12 53.85 c
28.06 5.67 p
3.12 -12.75 9.92 -22.11 20.4 -28.06 c
10.49 -5.95 24.66 -9.07 42.8 -9.07 c
18.42 0 32.87 3.12 42.79 9.63 c
10.2 6.52 15.3 15.87 15.3 28.06 c
0 7.09 -1.7 12.47 -4.82 17 c
-3.12 4.25 -7.65 7.93 -13.32 10.48 c
-5.67 2.84 -12.47 5.39 -20.4 7.09 c
-7.94 1.98 -16.72 3.97 -26.36 6.23 c
-17 3.68 -29.47 7.65 -38.26 11.34 c
-8.79 3.68 -15.59 7.65 -20.69 12.19 c
-4.82 4.82 -8.79 9.92 -11.34 16.15 c
-2.84 6.23 -3.97 13.32 -3.97 21.26 c
0 18.14 6.8 32.02 20.69 41.94 c
13.89 9.92 34.01 14.74 59.8 14.74 c
24.09 0 42.51 -3.69 55.27 -11.05 c
12.75 -7.37 21.82 -20.12 26.92 -37.69 c
-28.34 -5.1 p
-3.12 11.34 -9.07 19.55 -17.86 24.66 c
-8.79 4.82 -20.69 7.37 -36.27 7.37 c
-17 0 -30.04 -2.55 -38.82 -8.22 c
-9.07 -5.67 -13.61 -14.17 -13.61 -25.22 c
0 -6.52 1.98 -11.9 5.39 -16.15 c
3.4 -4.25 8.5 -7.94 15.02 -11.05 c
6.52 -2.83 19.55 -6.52 38.82 -10.77 c
6.52 -1.42 13.04 -3.12 19.55 -4.54 c
6.52 -1.7 12.75 -3.4 18.7 -5.67 c
5.95 -2.27 11.34 -4.82 16.72 -7.65 c
5.1 -2.84 9.64 -6.52 13.32 -10.77 c
3.96 -4.25 6.8 -9.07 9.07 -14.74 c
2.27 -5.67 3.12 -12.47 3.12 -20.4 c
f*
230 G
4709.54 3303.31 m
164.94 0 291.05 -129.23 291.05 -298.42 c
0 -169.47 -126.11 -298.7 -291.05 -298.7 c
-164.66 0 -290.49 129.23 -290.49 298.7 c
0 169.19 125.83 298.42 290.49 298.42 c
f*
146 G
4709.54 3303.31 m
164.94 0 291.05 -129.23 291.05 -298.42 c
0 -169.47 -126.11 -298.7 -291.05 -298.7 c
-164.66 0 -290.49 129.23 -290.49 298.7 c
0 169.19 125.83 298.42 290.49 298.42 c
h
S
4419.05 3303.31 0 0 H
S
5000.88 2705.9 0 0 H
S
K
4801.36 2955.86 m
0 -19.55 -7.65 -34.57 -22.96 -45.34 c
-15.3 -10.77 -36.84 -16.16 -64.61 -16.16 c
-51.86 0 -81.62 17.86 -90.12 53.85 c
28.05 5.67 p
3.12 -12.75 9.92 -22.11 20.41 -28.06 c
10.48 -5.95 24.66 -9.07 42.79 -9.07 c
18.42 0 32.88 3.12 42.79 9.63 c
10.2 6.52 15.3 15.87 15.3 28.06 c
0 7.09 -1.7 12.47 -4.82 17 c
-3.12 4.25 -7.65 7.93 -13.32 10.48 c
-5.67 2.84 -12.47 5.39 -20.41 7.09 c
-7.93 1.98 -16.72 3.97 -26.36 6.23 c
-17 3.68 -29.47 7.65 -38.26 11.34 c
-8.79 3.68 -15.59 7.65 -20.69 12.19 c
-4.82 4.82 -8.79 9.92 -11.34 16.15 c
-2.83 6.23 -3.96 13.32 -3.96 21.26 c
0 18.14 6.8 32.02 20.69 41.94 c
13.89 9.92 34.01 14.74 59.8 14.74 c
24.09 0 42.51 -3.69 55.26 -11.05 c
12.75 -7.37 21.82 -20.12 26.93 -37.69 c
-28.34 -5.1 p
-3.12 11.34 -9.07 19.55 -17.86 24.66 c
-8.79 4.82 -20.69 7.37 -36.28 7.37 c
-17 0 -30.04 -2.55 -38.82 -8.22 c
-9.07 -5.67 -13.6 -14.17 -13.6 -25.22 c
0 -6.52 1.98 -11.9 5.38 -16.15 c
3.4 -4.25 8.5 -7.94 15.02 -11.05 c
6.52 -2.83 19.55 -6.52 38.83 -10.77 c
6.52 -1.42 13.04 -3.12 19.55 -4.54 c
6.52 -1.7 12.75 -3.4 18.7 -5.67 c
5.95 -2.27 11.34 -4.82 16.72 -7.65 c
5.1 -2.84 9.64 -6.52 13.32 -10.77 c
3.97 -4.25 6.8 -9.07 9.07 -14.74 c
2.27 -5.67 3.12 -12.47 3.12 -20.4 c
f*
230 G
5446.1 3305.58 m
164.94 0 291.05 -129.23 291.05 -298.7 c
0 -169.19 -126.11 -298.42 -291.05 -298.42 c
-164.66 0 -290.48 129.23 -290.48 298.42 c
0 169.47 125.83 298.7 290.48 298.7 c
f*
146 G
5446.1 3305.58 m
164.94 0 291.05 -129.23 291.05 -298.7 c
0 -169.19 -126.11 -298.42 -291.05 -298.42 c
-164.66 0 -290.48 129.23 -290.48 298.42 c
0 169.47 125.83 298.7 290.48 298.7 c
h
S
5155.61 3305.58 0 0 H
S
5737.43 2708.17 0 0 H
S
K
5538.2 2958.13 m
0 -19.55 -7.65 -34.57 -22.96 -45.34 c
-15.3 -10.77 -36.84 -16.15 -64.61 -16.15 c
-51.86 0 -81.62 17.85 -90.12 53.84 c
28.05 5.67 p
3.12 -12.75 9.92 -22.11 20.41 -28.05 c
10.48 -5.95 24.66 -9.07 42.79 -9.07 c
18.42 0 32.88 3.12 42.79 9.64 c
10.2 6.52 15.3 15.87 15.3 28.05 c
0 7.09 -1.7 12.47 -4.82 17 c
-3.12 4.25 -7.65 7.94 -13.32 10.49 c
-5.67 2.83 -12.47 5.38 -20.41 7.08 c
-7.93 1.98 -16.72 3.97 -26.36 6.24 c
-17 3.68 -29.47 7.65 -38.26 11.34 c
-8.79 3.68 -15.59 7.65 -20.69 12.18 c
-4.82 4.82 -8.79 9.92 -11.34 16.16 c
-2.83 6.23 -3.96 13.32 -3.96 21.25 c
0 18.14 6.8 32.02 20.69 41.94 c
13.89 9.92 34.01 14.74 59.8 14.74 c
24.09 0 42.51 -3.68 55.26 -11.05 c
12.75 -7.37 21.82 -20.12 26.93 -37.69 c
-28.34 -5.1 p
-3.12 11.34 -9.07 19.55 -17.86 24.66 c
-8.79 4.82 -20.69 7.37 -36.28 7.37 c
-17 0 -30.04 -2.55 -38.82 -8.22 c
-9.07 -5.67 -13.6 -14.17 -13.6 -25.22 c
0 -6.52 1.98 -11.9 5.38 -16.16 c
3.4 -4.25 8.5 -7.93 15.02 -11.05 c
6.52 -2.84 19.55 -6.52 38.83 -10.77 c
6.52 -1.42 13.04 -3.12 19.55 -4.54 c
6.52 -1.7 12.75 -3.4 18.7 -5.67 c
5.95 -2.27 11.34 -4.82 16.72 -7.65 c
5.1 -2.83 9.64 -6.52 13.32 -10.77 c
3.97 -4.25 6.8 -9.07 9.07 -14.73 c
2.27 -5.67 3.12 -12.47 3.12 -20.41 c
f*
230 G
6143.83 3305.58 m
164.94 0 291.05 -129.23 291.05 -298.7 c
0 -169.19 -126.11 -298.42 -291.05 -298.42 c
-164.66 0 -290.48 129.23 -290.48 298.42 c
0 169.47 125.83 298.7 290.48 298.7 c
f*
146 G
6143.83 3305.58 m
164.94 0 291.05 -129.23 291.05 -298.7 c
0 -169.19 -126.11 -298.42 -291.05 -298.42 c
-164.66 0 -290.48 129.23 -290.48 298.42 c
0 169.47 125.83 298.7 290.48 298.7 c
h
S
5853.34 3305.58 0 0 H
S
6435.16 2708.17 0 0 H
S
K
6235.93 2958.13 m
0 -19.55 -7.65 -34.57 -22.95 -45.34 c
-15.3 -10.77 -36.84 -16.15 -64.62 -16.15 c
-51.86 0 -81.62 17.85 -90.12 53.84 c
28.06 5.67 p
3.12 -12.75 9.92 -22.11 20.4 -28.05 c
10.49 -5.95 24.66 -9.07 42.79 -9.07 c
18.42 0 32.88 3.12 42.79 9.64 c
10.2 6.52 15.3 15.87 15.3 28.05 c
0 7.09 -1.7 12.47 -4.82 17 c
-3.12 4.25 -7.65 7.94 -13.32 10.49 c
-5.67 2.83 -12.47 5.38 -20.41 7.08 c
-7.93 1.98 -16.72 3.97 -26.36 6.24 c
-17 3.68 -29.47 7.65 -38.26 11.34 c
-8.79 3.68 -15.59 7.65 -20.69 12.18 c
-4.82 4.82 -8.79 9.92 -11.34 16.16 c
-2.84 6.23 -3.97 13.32 -3.97 21.25 c
0 18.14 6.8 32.02 20.69 41.94 c
13.89 9.92 34.01 14.74 59.8 14.74 c
24.09 0 42.51 -3.68 55.26 -11.05 c
12.75 -7.37 21.82 -20.12 26.93 -37.69 c
-28.34 -5.1 p
-3.12 11.34 -9.07 19.55 -17.86 24.66 c
-8.79 4.82 -20.69 7.37 -36.27 7.37 c
-17 0 -30.04 -2.55 -38.83 -8.22 c
-9.07 -5.67 -13.6 -14.17 -13.6 -25.22 c
0 -6.52 1.98 -11.9 5.38 -16.16 c
3.4 -4.25 8.5 -7.93 15.02 -11.05 c
6.52 -2.84 19.55 -6.52 38.83 -10.77 c
6.52 -1.42 13.04 -3.12 19.55 -4.54 c
6.52 -1.7 12.75 -3.4 18.7 -5.67 c
5.95 -2.27 11.34 -4.82 16.72 -7.65 c
5.1 -2.83 9.63 -6.52 13.32 -10.77 c
3.97 -4.25 6.8 -9.07 9.07 -14.73 c
2.27 -5.67 3.12 -12.47 3.12 -20.41 c
f*
254 G
987.93 5366.18 m
121.01 0 213.4 -94.09 213.4 -217.93 c
0 -123.56 -92.39 -218.22 -213.4 -218.22 c
-120.73 0 -213.12 94.66 -213.12 218.22 c
0 123.84 92.39 217.93 213.12 217.93 c
f*
146 G
987.93 5366.18 m
121.01 0 213.4 -94.09 213.4 -217.93 c
0 -123.56 -92.39 -218.22 -213.4 -218.22 c
-120.73 0 -213.12 94.66 -213.12 218.22 c
0 123.84 92.39 217.93 213.12 217.93 c
h
S
774.82 5366.18 0 0 H
S
1201.62 4929.74 0 0 H
S
K
1030.73 5079.09 -54.41 66.04 -17.86 -13.61 0 -52.43 -18.7 0 0 136.6 ^ 0 -68.3 
65.75 68.3 21.82 0 -58.1 -59.23 65.75 -77.37 -22.95 0 f*
254 G
1608.3 4969.7 m
120.73 0 213.4 -94.37 213.4 -217.93 c
0 -123.85 -92.67 -218.5 -213.4 -218.5 c
-121.01 0 -213.12 94.66 -213.12 218.5 c
0 123.56 92.11 217.93 213.12 217.93 c
f*
146 G
1608.3 4969.7 m
120.73 0 213.4 -94.37 213.4 -217.93 c
0 -123.85 -92.67 -218.5 -213.4 -218.5 c
-121.01 0 -213.12 94.66 -213.12 218.5 c
0 123.56 92.11 217.93 213.12 217.93 c
h
S
1395.18 4969.7 0 0 H
S
1821.98 4532.98 0 0 H
S
K
1651.09 4682.34 -54.41 66.03 -17.86 -13.6 0 -52.43 -18.7 0 0 136.6 ^ 0 -68.3 
65.75 68.3 21.82 0 -58.09 -59.23 65.75 -77.37 -22.95 0 f*
254 G
2306.03 4969.7 m
121.01 0 213.4 -94.37 213.4 -217.93 c
0 -123.85 -92.39 -218.5 -213.4 -218.5 c
-120.73 0 -213.12 94.66 -213.12 218.5 c
0 123.56 92.39 217.93 213.12 217.93 c
f*
146 G
2306.03 4969.7 m
121.01 0 213.4 -94.37 213.4 -217.93 c
0 -123.85 -92.39 -218.5 -213.4 -218.5 c
-120.73 0 -213.12 94.66 -213.12 218.5 c
0 123.56 92.39 217.93 213.12 217.93 c
h
S
2092.91 4969.7 0 0 H
S
2519.71 4532.98 0 0 H
S
K
2348.82 4682.34 -54.41 66.03 -17.86 -13.6 0 -52.43 -18.7 0 0 136.6 ^ 0 -68.3 
65.75 68.3 21.82 0 -58.09 -59.23 65.75 -77.37 -22.95 0 f*
254 G
2887.56 5366.18 m
121.01 0 213.4 -94.09 213.4 -217.93 c
0 -123.56 -92.39 -218.22 -213.4 -218.22 c
-121.01 0 -213.12 94.66 -213.12 218.22 c
0 123.84 92.11 217.93 213.12 217.93 c
f*
146 G
2887.56 5366.18 m
121.01 0 213.4 -94.09 213.4 -217.93 c
0 -123.56 -92.39 -218.22 -213.4 -218.22 c
-121.01 0 -213.12 94.66 -213.12 218.22 c
0 123.84 92.11 217.93 213.12 217.93 c
h
S
2674.45 5366.18 0 0 H
S
3101.25 4929.74 0 0 H
S
K
2930.36 5079.09 -54.41 66.04 -17.86 -13.61 0 -52.43 -18.7 0 0 136.6 ^ 0 -68.3 
65.75 68.3 21.82 0 -58.1 -59.23 65.75 -77.37 -22.96 0 f*
2306.59 4969.42 -143.4 600.81 S
2737.08 5302.41 -488.58 478.95 S
1139.27 5302.41 527.69 478.95 S
1608.86 4969.42 143.12 600.81 S
1837.28 3926.51 m
0 24.94 3.97 47.33 11.62 67.16 c
7.93 19.55 19.84 38.26 35.99 55.83 c
22.39 0 p
-16.15 -17.86 -27.77 -36.84 -35.43 -57.25 c
-7.37 -20.12 -11.34 -41.94 -11.34 -66.03 c
0 -23.8 3.69 -45.91 11.34 -66.03 c
7.37 -19.84 19.27 -39.11 35.43 -57.25 c
-22.39 0 p
-16.16 17.57 -28.34 36.27 -35.99 56.11 c
-7.65 19.84 -11.62 42.23 -11.62 66.88 c
0 0.57 p f*
1961.13 3855.38 m
-14.17 0 -24.66 3.68 -31.74 11.05 c
-7.09 7.65 -10.48 17.86 -10.48 30.89 c
0 14.45 4.54 25.79 14.17 33.44 c
9.64 7.93 24.94 11.62 45.91 11.62 c
31.46 0 0 7.93 p
0 11.34 -2.27 19.84 -7.09 24.66 c
-4.82 5.1 -12.47 7.65 -22.96 7.65 c
-10.2 0 -17.85 -1.98 -22.67 -5.39 c
-4.54 -3.68 -7.65 -9.07 -8.5 -17 c
-24.09 2.27 p
3.68 25.22 22.39 37.69 55.83 37.69 c
17.57 0 30.89 -3.97 39.68 -12.19 c
8.79 -7.93 13.32 -19.55 13.32 -34.86 c
0 -60.08 p
0 -6.8 0.85 -11.9 2.84 -15.59 c
1.7 -3.4 5.1 -5.1 10.2 -5.1 c
2.27 0 4.82 0.28 7.65 0.85 c
0 -14.45 p
-5.95 -1.42 -11.9 -1.98 -17.85 -1.98 c
-8.79 0 -15.02 2.27 -18.99 6.8 c
-3.97 4.53 -5.95 11.62 -6.52 20.97 c
-0.85 0 p
-5.95 -10.48 -12.75 -18.14 -20.69 -22.67 c
-7.93 -4.25 -17.57 -6.52 -28.62 -6.52 c
h
1966.23 3872.95 m
8.5 0 16.15 1.7 22.67 5.67 c
6.8 3.68 11.9 9.07 15.87 15.87 c
3.68 6.52 5.67 13.6 5.67 20.69 c
0 11.34 -25.51 0 p
-10.77 0 -18.99 -1.13 -24.66 -3.12 c
-5.67 -1.98 -10.2 -5.39 -13.04 -9.64 c
-3.12 -4.25 -4.54 -9.92 -4.54 -17 c
0 -7.65 1.98 -13.6 6.23 -17.57 c
3.97 -4.25 9.92 -6.23 17.29 -6.23 c
f*
2122.67 3925.94 m
0 -24.94 -3.97 -47.33 -11.62 -67.17 c
-7.93 -19.55 -19.84 -38.26 -35.99 -55.83 c
-22.67 0 p
16.44 18.14 28.06 37.13 35.71 57.25 c
7.37 19.84 11.05 41.94 11.05 66.03 c
0 24.09 -3.68 46.2 -11.05 66.03 c
-7.65 20.13 -19.55 39.11 -35.71 57.25 c
22.67 0 p
16.15 -17.57 28.34 -36.28 35.99 -56.11 c
7.65 -19.84 11.62 -42.23 11.62 -66.88 c
0 -0.57 p f*
5093.83 3926.51 m
0 24.94 3.97 47.33 11.62 67.16 c
7.93 19.55 19.84 38.26 35.99 55.83 c
22.39 0 p
-16.15 -17.86 -27.77 -36.84 -35.43 -57.25 c
-7.37 -20.12 -11.34 -41.94 -11.34 -66.03 c
0 -23.8 3.68 -45.91 11.34 -66.03 c
7.37 -19.84 19.27 -39.11 35.43 -57.25 c
-22.39 0 p
-16.15 17.57 -28.34 36.27 -35.99 56.11 c
-7.65 19.84 -11.62 42.23 -11.62 66.88 c
0 0.57 p f*
5300.15 3928.49 m
0 -48.75 -17.29 -73.12 -51.58 -73.12 c
-10.49 0 -19.27 1.98 -26.36 5.67 c
-7.08 3.96 -12.75 10.2 -17 18.7 c
-0.28 0 p
0 -2.84 -0.29 -6.8 -0.57 -12.19 c
-0.29 -5.67 -0.57 -8.79 -0.85 -9.63 c
-22.39 0 p
0.57 4.53 0.85 14.17 0.85 28.91 c
0 162.67 23.24 0 0 -54.7 p
0 -5.38 -0.28 -12.18 -0.57 -19.55 c
0.57 0 p
4.25 8.79 9.92 15.3 17 19.27 c
7.09 3.68 15.87 5.67 26.36 5.67 c
17.85 0 30.61 -5.95 39.11 -17.86 c
8.22 -11.9 12.47 -29.76 12.47 -53.84 c
h
5275.77 3927.64 m
0 19.55 -2.55 33.44 -7.93 41.94 c
-5.1 8.5 -13.6 12.75 -25.22 12.75 c
-13.04 0 -22.39 -4.54 -28.34 -13.6 c
-6.23 -8.79 -9.07 -22.96 -9.07 -42.51 c
0 -18.42 2.84 -31.74 8.79 -40.52 c
5.95 -8.79 15.3 -13.04 28.63 -13.04 c
11.62 0 20.12 4.25 25.22 12.75 c
5.1 8.79 7.93 22.67 7.93 42.23 c
f*
5379.21 3925.94 m
0 -24.94 -3.96 -47.33 -11.62 -67.17 c
-7.94 -19.55 -19.84 -38.26 -35.99 -55.83 c
-22.67 0 p
16.44 18.14 28.05 37.13 35.71 57.25 c
7.37 19.84 11.05 41.94 11.05 66.03 c
0 24.09 -3.69 46.2 -11.05 66.03 c
-7.65 20.13 -19.55 39.11 -35.71 57.25 c
22.67 0 p
16.15 -17.57 28.34 -36.28 35.99 -56.11 c
7.65 -19.84 11.62 -42.23 11.62 -66.88 c
0 -0.57 p f*
1823.96 751.58 m
0 24.94 3.97 47.32 11.62 67.16 c
7.93 19.55 19.84 38.26 35.99 55.83 c
22.39 0 p
-16.15 -17.85 -27.77 -36.84 -35.42 -57.25 c
-7.37 -20.12 -11.34 -41.94 -11.34 -66.03 c
0 -23.8 3.68 -45.91 11.34 -66.03 c
7.37 -19.84 19.27 -39.11 35.42 -57.25 c
-22.39 0 p
-16.15 17.57 -28.34 36.27 -35.99 56.11 c
-7.65 19.84 -11.62 42.23 -11.62 66.88 c
0 0.57 p f*
1929.67 753.56 m
0 -18.7 3.12 -32.3 8.79 -41.37 c
5.95 -9.07 14.73 -13.32 26.64 -13.32 c
8.21 0 15.02 1.98 20.69 6.52 c
5.38 4.25 8.79 11.05 10.2 20.12 c
23.52 0 p
-1.7 -13.89 -7.65 -24.66 -17.29 -32.87 c
-9.64 -8.22 -21.82 -12.19 -36.56 -12.19 c
-19.55 0 -34.58 6.24 -44.78 18.42 c
-10.2 12.47 -15.3 30.32 -15.3 54.13 c
0 23.52 5.1 41.38 15.3 53.85 c
10.48 12.19 25.22 18.42 44.49 18.42 c
14.17 0 26.07 -3.68 35.71 -11.05 c
9.36 -7.37 15.3 -17.57 17.57 -30.61 c
-23.81 -1.7 p
-1.13 7.65 -4.25 13.89 -9.07 18.42 c
-5.1 4.54 -11.9 6.8 -20.97 6.8 c
-12.47 0 -21.25 -4.25 -26.92 -12.18 c
-5.39 -8.22 -8.22 -22.11 -8.22 -41.38 c
f*
2095.18 751.01 m
0 -24.94 -3.97 -47.32 -11.62 -67.16 c
-7.94 -19.55 -19.84 -38.26 -35.99 -55.83 c
-22.67 0 p
16.44 18.14 28.05 37.13 35.71 57.25 c
7.37 19.84 11.05 41.94 11.05 66.03 c
0 24.09 -3.68 46.2 -11.05 66.03 c
-7.65 20.12 -19.55 39.11 -35.71 57.25 c
22.67 0 p
16.15 -17.57 28.34 -36.27 35.99 -56.11 c
7.65 -19.84 11.62 -42.23 11.62 -66.88 c
0 -0.57 p f*
5093.83 769.43 m
0 24.94 3.97 47.33 11.62 67.17 c
7.93 19.55 19.84 38.26 35.99 55.83 c
22.39 0 p
-16.15 -17.85 -27.77 -36.84 -35.43 -57.25 c
-7.37 -20.12 -11.34 -41.94 -11.34 -66.03 c
0 -23.8 3.68 -45.91 11.34 -66.03 c
7.37 -19.84 19.27 -39.11 35.43 -57.25 c
-22.39 0 p
-16.15 17.57 -28.34 36.28 -35.99 56.11 c
-7.65 19.84 -11.62 42.23 -11.62 66.88 c
0 0.57 p f*
5270.11 723.24 m
-4.25 -8.79 -9.92 -15.3 -17 -18.99 c
-7.08 -3.97 -15.87 -5.95 -26.36 -5.95 c
-17.86 0 -30.89 5.95 -39.11 17.86 c
-8.22 11.9 -12.47 29.76 -12.47 53.84 c
0 48.75 17.29 73.12 51.58 73.12 c
10.48 0 19.27 -1.98 26.36 -5.67 c
7.09 -3.96 12.75 -10.2 17 -18.7 c
0.29 0 -0.29 15.59 0 58.1 23.24 0 0 -162.67 p
0 -14.73 0.29 -24.37 0.85 -28.91 c
-22.39 0 p
-0.29 1.42 -0.29 4.54 -0.85 9.64 c
-0.29 4.82 -0.29 9.35 -0.29 12.75 c
-0.57 0 h
5199.54 770.85 m
0 -19.55 2.55 -33.44 7.94 -41.94 c
5.1 -8.5 13.32 -12.75 24.94 -12.75 c
13.32 0 22.96 4.54 28.91 13.89 c
5.95 9.07 8.79 23.24 8.79 42.23 c
0 18.7 -2.83 32.31 -8.79 40.81 c
-5.95 8.5 -15.59 12.75 -28.62 12.75 c
-11.62 0 -20.12 -4.25 -25.22 -12.75 c
-5.39 -8.79 -7.94 -22.67 -7.94 -42.23 c
f*
5379.21 768.86 m
0 -24.94 -3.96 -47.33 -11.62 -67.16 c
-7.94 -19.55 -19.84 -38.26 -35.99 -55.83 c
-22.67 0 p
16.44 18.14 28.05 37.13 35.71 57.25 c
7.37 19.84 11.05 41.94 11.05 66.03 c
0 24.09 -3.69 46.19 -11.05 66.03 c
-7.65 20.12 -19.55 39.11 -35.71 57.25 c
22.67 0 p
16.15 -17.57 28.34 -36.27 35.99 -56.11 c
7.65 -19.84 11.62 -42.23 11.62 -66.88 c
0 -0.57 p f*
254 G
2926.39 3740.03 m
120.73 0 213.4 -94.37 213.4 -217.94 c
0 -123.84 -92.67 -218.5 -213.4 -218.5 c
-121.01 0 -213.11 94.66 -213.11 218.5 c
0 123.56 92.1 217.94 213.11 217.94 c
f*
146 G
2926.39 3740.03 m
120.73 0 213.4 -94.37 213.4 -217.94 c
0 -123.84 -92.67 -218.5 -213.4 -218.5 c
-121.01 0 -213.11 94.66 -213.11 218.5 c
0 123.56 92.1 217.94 213.11 217.94 c
h
S
2713.27 3740.03 0 0 H
S
3140.07 3303.31 0 0 H
S
K
2983.92 3548.45 m
0 -12.75 -4.25 -23.24 -12.75 -30.89 c
-8.22 -7.65 -19.84 -11.34 -34.29 -11.34 c
-39.96 0 0 -53.28 -18.7 0 0 136.6 57.53 0 p
15.3 0 27.2 -3.4 35.71 -10.77 c
8.22 -7.08 12.47 -17.29 12.47 -30.32 c
h
2965.21 3548.45 m
0 17.57 -10.48 26.36 -31.74 26.36 c
-36.56 0 0 -53.85 37.41 0 p
20.69 0 30.89 9.07 30.89 27.49 c
f*
254 G
2887.85 5365.89 m
121.01 0 213.4 -94.09 213.4 -217.93 c
0 -123.56 -92.39 -218.22 -213.4 -218.22 c
-120.73 0 -213.12 94.66 -213.12 218.22 c
0 123.85 92.39 217.93 213.12 217.93 c
f*
146 G
2887.85 5365.89 m
121.01 0 213.4 -94.09 213.4 -217.93 c
0 -123.56 -92.39 -218.22 -213.4 -218.22 c
-120.73 0 -213.12 94.66 -213.12 218.22 c
0 123.85 92.39 217.93 213.12 217.93 c
h
S
2674.73 5365.89 0 0 H
S
3101.53 4929.46 0 0 H
S
K
2930.64 5078.81 -54.41 66.03 -17.86 -13.6 0 -52.43 -18.7 0 0 136.6 ^ 0 -68.3 
65.75 68.3 21.82 0 -58.09 -59.23 65.75 -77.37 -22.95 0 f*
254 G
3391.45 3303.59 m
121.01 0 213.4 -94.37 213.4 -217.93 c
0 -123.56 -92.39 -218.22 -213.4 -218.22 c
-120.73 0 -213.12 94.66 -213.12 218.22 c
0 123.56 92.39 217.93 213.12 217.93 c
f*
146 G
3391.45 3303.59 m
121.01 0 213.4 -94.37 213.4 -217.93 c
0 -123.56 -92.39 -218.22 -213.4 -218.22 c
-120.73 0 -213.12 94.66 -213.12 218.22 c
0 123.56 92.39 217.93 213.12 217.93 c
h
S
3178.33 3303.59 0 0 H
S
3605.13 2867.16 0 0 H
S
K
3449.26 3112.02 m
0 -12.75 -4.25 -23.24 -12.75 -30.89 c
-8.22 -7.65 -19.84 -11.34 -34.29 -11.34 c
-39.96 0 0 -53.28 -18.7 0 0 136.6 57.53 0 p
15.3 0 27.21 -3.4 35.71 -10.77 c
8.22 -7.09 12.47 -17.29 12.47 -30.32 c
h
3430.56 3112.02 m
0 17.57 -10.49 26.36 -31.74 26.36 c
-36.56 0 0 -53.84 37.41 0 p
20.69 0 30.89 9.07 30.89 27.49 c
f*
254 G
3003.76 2788.09 m
121.01 0 213.4 -94.37 213.4 -218.22 c
0 -123.56 -92.39 -218.22 -213.4 -218.22 c
-120.73 0 -212.84 94.66 -212.84 218.22 c
0 123.85 92.11 218.22 212.84 218.22 c
f*
146 G
3003.76 2788.09 m
121.01 0 213.4 -94.37 213.4 -218.22 c
0 -123.56 -92.39 -218.22 -213.4 -218.22 c
-120.73 0 -212.84 94.66 -212.84 218.22 c
0 123.85 92.11 218.22 212.84 218.22 c
h
S
2790.92 2788.09 0 0 H
S
3217.44 2351.37 0 0 H
S
K
3061.57 2596.23 m
0 -12.75 -4.25 -23.24 -12.75 -30.89 c
-8.22 -7.65 -19.84 -11.34 -34.29 -11.34 c
-39.96 0 0 -53.28 -18.7 0 0 136.6 57.53 0 p
15.3 0 27.21 -3.4 35.71 -10.77 c
8.22 -7.09 12.47 -17.29 12.47 -30.32 c
h
3042.87 2596.23 m
0 17.57 -10.49 26.36 -31.74 26.36 c
-36.56 0 0 -53.84 37.41 0 p
20.69 0 30.89 9.07 30.89 27.49 c
f*
254 G
1453.27 1915.22 m
120.73 0 213.4 -94.09 213.4 -217.94 c
0 -123.56 -92.67 -218.21 -213.4 -218.21 c
-121.01 0 -213.11 94.65 -213.11 218.21 c
0 123.85 92.1 217.94 213.11 217.94 c
f*
146 G
1453.27 1915.22 m
120.73 0 213.4 -94.09 213.4 -217.94 c
0 -123.56 -92.67 -218.21 -213.4 -218.21 c
-121.01 0 -213.11 94.65 -213.11 218.21 c
0 123.85 92.1 217.94 213.11 217.94 c
h
S
1240.16 1915.22 0 0 H
S
1666.96 1478.78 0 0 H
S
K
1510.8 1723.64 m
0 -12.75 -4.25 -23.24 -12.75 -30.89 c
-8.22 -7.65 -19.84 -11.34 -34.29 -11.34 c
-39.96 0 0 -53.28 -18.7 0 0 136.6 57.53 0 p
15.3 0 27.2 -3.4 35.71 -10.77 c
8.22 -7.08 12.47 -17.29 12.47 -30.32 c
h
1492.1 1723.64 m
0 17.57 -10.49 26.36 -31.74 26.36 c
-36.56 0 0 -53.85 37.41 0 p
20.69 0 30.89 9.07 30.89 27.49 c
f*
254 G
1957.16 1479.07 m
121.01 0 213.4 -94.37 213.4 -217.94 c
0 -123.84 -92.39 -218.5 -213.4 -218.5 c
-121.01 0 -213.12 94.66 -213.12 218.5 c
0 123.56 92.11 217.94 213.12 217.94 c
f*
146 G
1957.16 1479.07 m
121.01 0 213.4 -94.37 213.4 -217.94 c
0 -123.84 -92.39 -218.5 -213.4 -218.5 c
-121.01 0 -213.12 94.66 -213.12 218.5 c
0 123.56 92.11 217.94 213.12 217.94 c
h
S
1744.04 1479.07 0 0 H
S
2170.84 1042.34 0 0 H
S
K
2014.69 1287.2 m
0 -12.75 -4.25 -23.24 -12.75 -30.89 c
-8.22 -7.65 -19.84 -11.34 -34.29 -11.34 c
-39.96 0 0 -53.28 -18.71 0 0 136.6 57.53 0 p
15.3 0 27.21 -3.4 35.71 -10.77 c
8.22 -7.09 12.47 -17.29 12.47 -30.32 c
h
1995.98 1287.2 m
0 17.57 -10.48 26.36 -31.74 26.36 c
-36.56 0 0 -53.85 37.41 0 p
20.69 0 30.89 9.07 30.89 27.49 c
f*
254 G
2422.22 1915.22 m
121.01 0 213.4 -94.09 213.4 -217.94 c
0 -123.56 -92.39 -218.21 -213.4 -218.21 c
-120.73 0 -212.83 94.65 -212.83 218.21 c
0 123.85 92.11 217.94 212.83 217.94 c
f*
146 G
2422.22 1915.22 m
121.01 0 213.4 -94.09 213.4 -217.94 c
0 -123.56 -92.39 -218.21 -213.4 -218.21 c
-120.73 0 -212.83 94.65 -212.83 218.21 c
0 123.85 92.11 217.94 212.83 217.94 c
h
S
2209.39 1915.22 0 0 H
S
2635.9 1478.78 0 0 H
S
K
2480.04 1723.64 m
0 -12.75 -4.25 -23.24 -12.75 -30.89 c
-8.22 -7.65 -19.84 -11.34 -34.29 -11.34 c
-39.96 0 0 -53.28 -18.71 0 0 136.6 57.53 0 p
15.3 0 27.21 -3.4 35.71 -10.77 c
8.22 -7.08 12.47 -17.29 12.47 -30.32 c
h
2461.33 1723.64 m
0 17.57 -10.48 26.36 -31.74 26.36 c
-36.56 0 0 -53.85 37.41 0 p
20.69 0 30.89 9.07 30.89 27.49 c
f*
254 G
910.56 3660.68 m
120.73 0 213.12 -94.37 213.12 -217.93 c
0 -123.84 -92.39 -218.5 -213.12 -218.5 c
-121.01 0 -213.11 94.66 -213.11 218.5 c
0 123.56 92.1 217.93 213.11 217.93 c
f*
146 G
910.56 3660.68 m
120.73 0 213.12 -94.37 213.12 -217.93 c
0 -123.84 -92.39 -218.5 -213.12 -218.5 c
-121.01 0 -213.11 94.66 -213.11 218.5 c
0 123.56 92.1 217.93 213.11 217.93 c
h
S
697.45 3660.68 0 0 H
S
1124.25 3223.96 0 0 H
S
K
968.09 3469.1 m
0 -12.75 -4.25 -23.24 -12.75 -30.89 c
-8.22 -7.65 -19.84 -11.34 -34.29 -11.34 c
-39.96 0 0 -53.28 -18.7 0 0 136.6 57.53 0 p
15.3 0 27.2 -3.4 35.71 -10.77 c
8.22 -7.08 12.47 -17.29 12.47 -30.32 c
h
949.39 3469.1 m
0 17.57 -10.49 26.36 -31.74 26.36 c
-36.56 0 0 -53.85 37.41 0 p
20.69 0 30.89 9.07 30.89 27.49 c
f*
254 G
406.39 3105.21 m
121.01 0 213.4 -94.09 213.4 -217.94 c
0 -123.56 -92.39 -218.21 -213.4 -218.21 c
-120.73 0 -213.12 94.65 -213.12 218.21 c
0 123.85 92.39 217.94 213.12 217.94 c
f*
146 G
406.39 3105.21 m
121.01 0 213.4 -94.09 213.4 -217.94 c
0 -123.56 -92.39 -218.21 -213.4 -218.21 c
-120.73 0 -213.12 94.65 -213.12 218.21 c
0 123.85 92.39 217.94 213.12 217.94 c
h
S
193.28 3105.21 0 0 H
S
620.08 2668.78 0 0 H
S
K
464.21 2913.64 m
0 -12.75 -4.25 -23.24 -12.75 -30.89 c
-8.22 -7.65 -19.84 -11.34 -34.29 -11.34 c
-39.96 0 0 -53.28 -18.71 0 0 136.6 57.53 0 p
15.3 0 27.21 -3.4 35.71 -10.77 c
8.22 -7.09 12.47 -17.29 12.47 -30.32 c
h
445.5 2913.64 m
0 17.57 -10.48 26.36 -31.74 26.36 c
-36.56 0 0 -53.85 37.41 0 p
20.69 0 30.89 9.07 30.89 27.49 c
f*
254 G
910.56 2708.74 m
120.73 0 213.12 -94.37 213.12 -218.22 c
0 -123.56 -92.39 -218.22 -213.12 -218.22 c
-121.01 0 -213.11 94.66 -213.11 218.22 c
0 123.84 92.1 218.22 213.11 218.22 c
f*
146 G
910.56 2708.74 m
120.73 0 213.12 -94.37 213.12 -218.22 c
0 -123.56 -92.39 -218.22 -213.12 -218.22 c
-121.01 0 -213.11 94.66 -213.11 218.22 c
0 123.84 92.1 218.22 213.11 218.22 c
h
S
697.45 2708.74 0 0 H
S
1124.25 2272.02 0 0 H
S
K
968.09 2516.88 m
0 -12.75 -4.25 -23.24 -12.75 -30.89 c
-8.22 -7.65 -19.84 -11.34 -34.29 -11.34 c
-39.96 0 0 -53.28 -18.7 0 0 136.6 57.53 0 p
15.3 0 27.2 -3.4 35.71 -10.77 c
8.22 -7.09 12.47 -17.29 12.47 -30.32 c
h
949.39 2516.88 m
0 17.57 -10.49 26.36 -31.74 26.36 c
-36.56 0 0 -53.84 37.41 0 p
20.69 0 30.89 9.07 30.89 27.49 c
f*
254 G
4438.33 6001 m
120.73 0 213.4 -94.37 213.4 -217.94 c
0 -123.84 -92.67 -218.5 -213.4 -218.5 c
-121.01 0 -213.12 94.66 -213.12 218.5 c
0 123.56 92.11 217.94 213.12 217.94 c
f*
146 G
4438.33 6001 m
120.73 0 213.4 -94.37 213.4 -217.94 c
0 -123.84 -92.67 -218.5 -213.4 -218.5 c
-121.01 0 -213.12 94.66 -213.12 218.5 c
0 123.56 92.11 217.94 213.12 217.94 c
h
S
4225.21 6001 0 0 H
S
4652.01 5564.28 0 0 H
S
K
4495.86 5809.42 m
0 -12.75 -4.25 -23.24 -12.75 -30.89 c
-8.22 -7.65 -19.84 -11.34 -34.29 -11.34 c
-39.96 0 0 -53.28 -18.71 0 0 136.6 57.53 0 p
15.3 0 27.21 -3.4 35.71 -10.77 c
8.22 -7.09 12.47 -17.29 12.47 -30.32 c
h
4477.15 5809.42 m
0 17.57 -10.48 26.36 -31.74 26.36 c
-36.56 0 0 -53.85 37.41 0 p
20.69 0 30.89 9.07 30.89 27.49 c
f*
254 G
5019.86 5326.5 m
120.73 0 213.12 -94.09 213.12 -217.93 c
0 -123.56 -92.39 -218.22 -213.12 -218.22 c
-121.01 0 -213.12 94.66 -213.12 218.22 c
0 123.84 92.11 217.93 213.12 217.93 c
f*
146 G
5019.86 5326.5 m
120.73 0 213.12 -94.09 213.12 -217.93 c
0 -123.56 -92.39 -218.22 -213.12 -218.22 c
-121.01 0 -213.12 94.66 -213.12 218.22 c
0 123.84 92.11 217.93 213.12 217.93 c
h
S
4806.75 5326.5 0 0 H
S
5233.27 4890.07 0 0 H
S
K
5077.39 5134.93 m
0 -12.75 -4.25 -23.24 -12.75 -30.89 c
-8.22 -7.65 -19.84 -11.34 -34.29 -11.34 c
-39.96 0 0 -53.28 -18.7 0 0 136.6 57.53 0 p
15.3 0 27.2 -3.4 35.71 -10.77 c
8.22 -7.09 12.47 -17.29 12.47 -30.32 c
h
5058.69 5134.93 m
0 17.57 -10.49 26.36 -31.74 26.36 c
-36.56 0 0 -53.85 37.41 0 p
20.69 0 30.89 9.07 30.89 27.49 c
f*
254 G
5446.1 6040.67 m
121.01 0 213.4 -94.37 213.4 -217.93 c
0 -123.85 -92.39 -218.5 -213.4 -218.5 c
-120.73 0 -213.12 94.66 -213.12 218.5 c
0 123.56 92.39 217.93 213.12 217.93 c
f*
146 G
5446.1 6040.67 m
121.01 0 213.4 -94.37 213.4 -217.93 c
0 -123.85 -92.39 -218.5 -213.4 -218.5 c
-120.73 0 -213.12 94.66 -213.12 218.5 c
0 123.56 92.39 217.93 213.12 217.93 c
h
S
5232.98 6040.67 0 0 H
S
5659.78 5603.95 0 0 H
S
K
5503.63 5849.09 m
0 -12.75 -4.25 -23.24 -12.75 -30.89 c
-8.22 -7.65 -19.84 -11.34 -34.29 -11.34 c
-39.96 0 0 -53.28 -18.7 0 0 136.6 57.53 0 p
15.3 0 27.21 -3.4 35.71 -10.77 c
8.22 -7.09 12.47 -17.29 12.47 -30.32 c
h
5484.93 5849.09 m
0 17.57 -10.49 26.36 -31.74 26.36 c
-36.56 0 0 -53.85 37.41 0 p
20.69 0 30.89 9.07 30.89 27.49 c
f*
254 G
6299.13 5326.5 m
120.73 0 213.4 -94.09 213.4 -217.93 c
0 -123.56 -92.67 -218.22 -213.4 -218.22 c
-121.01 0 -213.12 94.66 -213.12 218.22 c
0 123.84 92.11 217.93 213.12 217.93 c
f*
146 G
6299.13 5326.5 m
120.73 0 213.4 -94.09 213.4 -217.93 c
0 -123.56 -92.67 -218.22 -213.4 -218.22 c
-121.01 0 -213.12 94.66 -213.12 218.22 c
0 123.84 92.11 217.93 213.12 217.93 c
h
S
6086.02 5326.5 0 0 H
S
6512.82 4890.07 0 0 H
S
K
6356.66 5134.93 m
0 -12.75 -4.25 -23.24 -12.75 -30.89 c
-8.22 -7.65 -19.84 -11.34 -34.29 -11.34 c
-39.96 0 0 -53.28 -18.71 0 0 136.6 57.53 0 p
15.3 0 27.21 -3.4 35.71 -10.77 c
8.22 -7.09 12.47 -17.29 12.47 -30.32 c
h
6337.96 5134.93 m
0 17.57 -10.48 26.36 -31.74 26.36 c
-36.56 0 0 -53.85 37.41 0 p
20.69 0 30.89 9.07 30.89 27.49 c
f*
254 G
4554.52 4691.97 m
121.01 0 213.4 -94.37 213.4 -217.93 c
0 -123.84 -92.39 -218.5 -213.4 -218.5 c
-121.01 0 -213.12 94.66 -213.12 218.5 c
0 123.56 92.11 217.93 213.12 217.93 c
f*
146 G
4554.52 4691.97 m
121.01 0 213.4 -94.37 213.4 -217.93 c
0 -123.84 -92.39 -218.5 -213.4 -218.5 c
-121.01 0 -213.12 94.66 -213.12 218.5 c
0 123.56 92.11 217.93 213.12 217.93 c
h
S
4341.41 4691.97 0 0 H
S
4768.21 4255.25 0 0 H
S
K
4612.05 4500.39 m
0 -12.75 -4.25 -23.24 -12.75 -30.89 c
-8.22 -7.65 -19.84 -11.34 -34.29 -11.34 c
-39.96 0 0 -53.28 -18.7 0 0 136.6 57.53 0 p
15.3 0 27.21 -3.4 35.71 -10.77 c
8.22 -7.09 12.47 -17.29 12.47 -30.32 c
h
4593.35 4500.39 m
0 17.57 -10.48 26.36 -31.74 26.36 c
-36.56 0 0 -53.84 37.41 0 p
20.69 0 30.89 9.07 30.89 27.49 c
f*
254 G
5717.59 4691.97 m
120.73 0 213.4 -94.37 213.4 -217.93 c
0 -123.84 -92.67 -218.5 -213.4 -218.5 c
-121.01 0 -213.11 94.66 -213.11 218.5 c
0 123.56 92.1 217.93 213.11 217.93 c
f*
146 G
5717.59 4691.97 m
120.73 0 213.4 -94.37 213.4 -217.93 c
0 -123.84 -92.67 -218.5 -213.4 -218.5 c
-121.01 0 -213.11 94.66 -213.11 218.5 c
0 123.56 92.1 217.93 213.11 217.93 c
h
S
5504.48 4691.97 0 0 H
S
5931.28 4255.25 0 0 H
S
K
5775.13 4500.39 m
0 -12.75 -4.25 -23.24 -12.75 -30.89 c
-8.22 -7.65 -19.84 -11.34 -34.29 -11.34 c
-39.96 0 0 -53.28 -18.7 0 0 136.6 57.53 0 p
15.3 0 27.2 -3.4 35.71 -10.77 c
8.22 -7.09 12.47 -17.29 12.47 -30.32 c
h
5756.42 4500.39 m
0 17.57 -10.49 26.36 -31.74 26.36 c
-36.56 0 0 -53.84 37.41 0 p
20.69 0 30.89 9.07 30.89 27.49 c
f*
254 G
4283.02 2192.95 m
121.01 0 213.4 -94.37 213.4 -217.93 c
0 -123.56 -92.39 -218.22 -213.4 -218.22 c
-120.73 0 -212.83 94.66 -212.83 218.22 c
0 123.56 92.11 217.93 212.83 217.93 c
f*
146 G
4283.02 2192.95 m
121.01 0 213.4 -94.37 213.4 -217.93 c
0 -123.56 -92.39 -218.22 -213.4 -218.22 c
-120.73 0 -212.83 94.66 -212.83 218.22 c
0 123.56 92.11 217.93 212.83 217.93 c
h
S
4070.19 2192.95 0 0 H
S
4496.71 1756.23 0 0 H
S
K
4340.84 2001.37 m
0 -12.75 -4.25 -23.24 -12.75 -30.89 c
-8.22 -7.65 -19.84 -11.34 -34.29 -11.34 c
-39.96 0 0 -53.28 -18.71 0 0 136.6 57.53 0 p
15.3 0 27.21 -3.4 35.71 -10.77 c
8.22 -7.09 12.47 -17.29 12.47 -30.32 c
h
4322.13 2001.37 m
0 17.57 -10.48 26.36 -31.74 26.36 c
-36.56 0 0 -53.85 37.41 0 p
20.69 0 30.89 9.07 30.89 27.49 c
f*
254 G
6528.4 2179.35 m
120.73 0 213.12 -94.37 213.12 -218.22 c
0 -123.56 -92.39 -218.22 -213.12 -218.22 c
-121.01 0 -213.12 94.66 -213.12 218.22 c
0 123.84 92.11 218.22 213.12 218.22 c
f*
146 G
6528.4 2179.35 m
120.73 0 213.12 -94.37 213.12 -218.22 c
0 -123.56 -92.39 -218.22 -213.12 -218.22 c
-121.01 0 -213.12 94.66 -213.12 218.22 c
0 123.84 92.11 218.22 213.12 218.22 c
h
S
6315.29 2179.35 0 0 H
S
6742.09 1742.63 0 0 H
S
K
6585.93 1987.48 m
0 -12.75 -4.25 -23.24 -12.75 -30.89 c
-8.22 -7.65 -19.84 -11.34 -34.29 -11.34 c
-39.96 0 0 -53.28 -18.7 0 0 136.6 57.53 0 p
15.3 0 27.21 -3.4 35.71 -10.77 c
8.22 -7.09 12.47 -17.29 12.47 -30.32 c
h
6567.23 1987.48 m
0 17.57 -10.49 26.36 -31.74 26.36 c
-36.56 0 0 -53.85 37.41 0 p
20.69 0 30.89 9.07 30.89 27.49 c
f*
254 G
4864.56 1558.42 m
121.01 0 213.4 -94.37 213.4 -218.22 c
0 -123.56 -92.39 -218.22 -213.4 -218.22 c
-120.73 0 -212.84 94.66 -212.84 218.22 c
0 123.84 92.11 218.22 212.84 218.22 c
f*
146 G
4864.56 1558.42 m
121.01 0 213.4 -94.37 213.4 -218.22 c
0 -123.56 -92.39 -218.22 -213.4 -218.22 c
-120.73 0 -212.84 94.66 -212.84 218.22 c
0 123.84 92.11 218.22 212.84 218.22 c
h
S
4651.73 1558.42 0 0 H
S
5078.25 1121.7 0 0 H
S
K
4922.38 1366.55 m
0 -12.75 -4.25 -23.24 -12.75 -30.89 c
-8.22 -7.65 -19.84 -11.34 -34.29 -11.34 c
-39.96 0 0 -53.28 -18.7 0 0 136.6 57.53 0 p
15.3 0 27.21 -3.4 35.71 -10.77 c
8.22 -7.09 12.47 -17.29 12.47 -30.32 c
h
4903.67 1366.55 m
0 17.57 -10.49 26.36 -31.74 26.36 c
-36.56 0 0 -53.84 37.41 0 p
20.69 0 30.89 9.07 30.89 27.49 c
f*
254 G
5446.1 1558.42 m
121.01 0 213.4 -94.37 213.4 -218.22 c
0 -123.56 -92.39 -218.22 -213.4 -218.22 c
-120.73 0 -213.12 94.66 -213.12 218.22 c
0 123.84 92.39 218.22 213.12 218.22 c
f*
146 G
5446.1 1558.42 m
121.01 0 213.4 -94.37 213.4 -218.22 c
0 -123.56 -92.39 -218.22 -213.4 -218.22 c
-120.73 0 -213.12 94.66 -213.12 218.22 c
0 123.84 92.39 218.22 213.12 218.22 c
h
S
5232.98 1558.42 0 0 H
S
5659.78 1121.7 0 0 H
S
K
5503.63 1366.55 m
0 -12.75 -4.25 -23.24 -12.75 -30.89 c
-8.22 -7.65 -19.84 -11.34 -34.29 -11.34 c
-39.96 0 0 -53.28 -18.7 0 0 136.6 57.53 0 p
15.3 0 27.21 -3.4 35.71 -10.77 c
8.22 -7.09 12.47 -17.29 12.47 -30.32 c
h
5484.93 1366.55 m
0 17.57 -10.49 26.36 -31.74 26.36 c
-36.56 0 0 -53.84 37.41 0 p
20.69 0 30.89 9.07 30.89 27.49 c
f*
254 G
5988.81 1558.42 m
121.01 0 213.4 -94.37 213.4 -218.22 c
0 -123.56 -92.39 -218.22 -213.4 -218.22 c
-120.73 0 -212.83 94.66 -212.83 218.22 c
0 123.84 92.11 218.22 212.83 218.22 c
f*
146 G
5988.81 1558.42 m
121.01 0 213.4 -94.37 213.4 -218.22 c
0 -123.56 -92.39 -218.22 -213.4 -218.22 c
-120.73 0 -212.83 94.66 -212.83 218.22 c
0 123.84 92.11 218.22 212.83 218.22 c
h
S
5775.98 1558.42 0 0 H
S
6202.49 1121.7 0 0 H
S
K
6046.62 1366.55 m
0 -12.75 -4.25 -23.24 -12.75 -30.89 c
-8.22 -7.65 -19.84 -11.34 -34.29 -11.34 c
-39.96 0 0 -53.28 -18.71 0 0 136.6 57.53 0 p
15.3 0 27.21 -3.4 35.71 -10.77 c
8.22 -7.09 12.47 -17.29 12.47 -30.32 c
h
6027.92 1366.55 m
0 17.57 -10.48 26.36 -31.74 26.36 c
-36.56 0 0 -53.84 37.41 0 p
20.69 0 30.89 9.07 30.89 27.49 c
f*
4865.41 1558.13 0 0 H
S
14.4534 w
169 G
4303.14 2668.5 m
0 225.02 0 449.47 0 674.49 c
749.31 0 1498.9 0 2248.5 0 c
0 -225.02 0 -449.47 0 -674.49 c
-155.3 -2.55 -2066.27 -0.85 -2248.5 0 c
h
S
0 w
K
1209.27 3176.35 -147.37 111.38 S
1124.25 2965.21 -504.17 -78.5 S
1209.27 2754.08 -147.37 -109.39 S
2628.54 3176.35 147.37 190.73 S
2713.55 2965.21 465.34 119.88 S
2628.54 2754.08 162.67 -184.78 S
3155.38 2724.04 85.59 206.6 S
1604.61 1851.45 147.37 149.07 S
1957.73 1478.78 0 434.45 S
2271.73 1851.45 -108.54 149.07 S
1604.61 1542.55 202.07 -127.53 S
4652.01 5782.21 581.25 39.68 S
4438.89 5564.28 116.2 -872.59 S
4768.21 4473.47 736.55 0 S
5597.43 5667.71 120.73 -976.03 S
5567.11 4627.92 -395.91 325.91 S
4705.86 4627.92 163.52 325.91 S
5233.27 5108 853.03 0 S
5868.93 4627.92 279.72 325.91 S
4589.66 5628.04 1558.98 -365.3 S
4496.71 1974.45 1818.86 -13.89 S
5078.25 1339.63 155.02 0 S
4714.07 1494.37 -279.43 325.63 S
4283.88 2192.66 135.75 476.4 S
6528.97 2179.06 -94.09 490 S
6377.92 1806.39 -237.49 -312.02 S
5659.78 1339.63 116.48 0 S
1620.48 2754.08 131.5 -331.3 S
2163.19 2422.79 54.13 331.3 S
1705.5 2965.21 426.52 0 S
4865.41 1558.13 19.27 1108.95 S
5989.38 1558.13 18.99 1110.93 S
5446.66 1558.13 18.99 1110.93 S
cleartomark end end pagesave restore
 showpage
%%PageTrailer
%%Trailer
%%Pages: 1
